externalCode,end-date,name,start-date,description,status,locationGroup,timezone,LegalEntity.externalCode
Code (PA-PSA),End Date,Location Name,Start Date,Description,Status,Location Group,Time Zone,Company
10533103,,United Arab Emirates-Dubai,01/01/1900,United Arab Emirates-Dubai,A,,IST,1000
10543104,,Hong Kong-Hong Kong,01/01/1900,Hong Kong-Hong Kong,A,,IST,1000
10073010,,Gujarat-Ahmedabad 1,01/01/1900,Gujarat-Ahmedabad 1,A,,IST,1000
10123020,,Maharashtra-Amalner 2,01/01/1900,Maharashtra-Amalner 2,A,,IST,9200
10223043,,Uttarakhand-Haridwar,01/01/1900,Uttarakhand-Haridwar,A,,IST,1000
10523078,,Telangana-Hyderabad Plant,01/01/1900,Telangana-Hyderabad Plant,A,,IST,1000
10033005,,Andhra Pradesh-Tirupati AO,01/01/1900,Andhra Pradesh-Tirupati AO,A,,IST,1000
10103082,,Karnataka-Tumkur Plant,01/01/1900,Karnataka-Tumkur Plant,A,,IST,1000
10043007,,Bangladesh-Dhaka,01/01/1900,Bangladesh-Dhaka,A,,IST,1000
10053008,,Chhattisgarh-Raipur,01/01/1900,Chhattisgarh-Raipur,A,,IST,1000
10123021,,Maharashtra-Waluj,01/01/1900,Maharashtra-Waluj,A,,IST,1000
10073011,,Gujarat-Ahmedabad 2,01/01/1900,Gujarat-Ahmedabad 2,A,,IST,1000
10133031,,Madhya Pradesh-Indore,01/01/1900,Madhya Pradesh-Indore,A,,IST,1000
10083012,,Himachal Pradesh-Baddi,01/01/1900,Himachal Pradesh-Baddi,A,,IST,1000
10173035,,Rajasthan-Jaipur,01/01/1900,Rajasthan-Jaipur,A,,IST,1000
10023002,,Karnataka-Blr Wipro House,01/01/1900,Karnataka-Blr Wipro House,A,,IST,WEL1
10063009,,Delhi-Delhi,01/01/1900,Delhi-Delhi,A,,IST,1000
10213042,,Uttar Pradesh-Lucknow,01/01/1900,Uttar Pradesh-Lucknow,A,,IST,1000
10213041,,Uttar Pradesh-Ghaziabad,01/01/1900,Uttar Pradesh-Ghaziabad,A,,IST,1000
10093013,,Haryana-Faridabad,01/01/1900,Haryana-Faridabad,A,,IST,1000
10153033,,Punjab-Zirakpur,01/01/1900,Punjab-Zirakpur,A,,IST,1000
10123019,,Maharashtra-Amalner,01/01/1900,Maharashtra-Amalner,A,,IST,1000
10013001,,Andhra Pradesh-Vishakhapatnam,01/01/1900,Andhra Pradesh-Vishakhapatnam,A,,IST,WEL1
10103014,,Karnataka-Blr Wipro House,01/01/1900,Karnataka-Blr Wipro House,A,,IST,1000
10113018,,Kerala-Cochin,01/01/1900,Kerala-Cochin,A,,IST,1000
10123023,,Maharashtra-Pune RO,01/01/1900,Maharashtra-Pune RO,A,,IST,1000
10123024,,Maharashtra-Aurangabad 1,01/01/1900,Maharashtra-Aurangabad 1,A,,IST,1000
10123025,,Maharashtra-Bhiwandi 1,01/01/1900,Maharashtra-Bhiwandi 1,A,,IST,1000
10123027,,Maharashtra-Nagpur 1,01/01/1900,Maharashtra-Nagpur 1,A,,IST,1000
10123028,,Maharashtra-Pune,01/01/1900,Maharashtra-Pune,A,,IST,1000
10123029,,Maharashtra-Bhiwandi Depot,01/01/1900,Maharashtra-Bhiwandi Depot,A,,IST,1000
10123030,,Maharashtra-Mumbai Lotus,01/01/1900,Maharashtra-Mumbai Lotus,A,,IST,1000
10123022,,Maharashtra-Pune BO,01/01/1900,Maharashtra-Pune BO,A,,IST,1000
10103016,,Karnataka-Bangalore BG,01/01/1900,Karnataka-Bangalore BG,A,,IST,1000
10103017,,Karnataka-Hubli,01/01/1900,Karnataka-Hubli,A,,IST,1000
10103015,,Karnataka-Tumkur,01/01/1900,Karnataka-Tumkur,A,,IST,1000
10393081,,Tamil Nadu-Kancheepuram,01/01/1900,Tamil Nadu-Kancheepuram,A,,IST,1000
10393039,,Tamil Nadu-Coimbatore,01/01/1900,Tamil Nadu-Coimbatore,A,,IST,1000
10243045,,West Bengal-Kolkata RO,01/01/1900,West Bengal-Kolkata RO,A,,IST,1000
10253046,,Andhra Pradesh-Thumk. Cyl Pl,01/01/1900,Andhra Pradesh-Thumk. Cyl Pl,A,,IST,WFP1
10253047,,Andhra Pradesh-Vijayawada,01/01/1900,Andhra Pradesh-Vijayawada,A,,IST,WFP1
10253048,,Andhra Pradesh-Thumk.Cyl RodPl,01/01/1900,Andhra Pradesh-Thumk.Cyl RodPl,A,,IST,WFP1
10263049,,Delhi-Delhi,01/01/1900,Delhi-Delhi,A,,IST,WFP1
10273050,,Gujarat-Baroda,01/01/1900,Gujarat-Baroda,A,,IST,WFP1
10273051,,Gujarat-Ahmedabad,01/01/1900,Gujarat-Ahmedabad,A,,IST,WFP1
10283052,,Haryana-Nlbtrd Frd,01/01/1900,Haryana-Nlbtrd Frd,A,,IST,WFP1
10283053,,Haryana-Haryana,01/01/1900,Haryana-Haryana,A,,IST,WFP1
10293054,,Jharkhand-Jamshedpur,01/01/1900,Jharkhand-Jamshedpur,A,,IST,WFP1
10303055,,Karnataka-M G Road,01/01/1900,Karnataka-M G Road,A,,IST,WFP1
10303056,,Karnataka-Peenya,01/01/1900,Karnataka-Peenya,A,,IST,WFP1
10303057,,Karnataka-Devanahall,01/01/1900,Karnataka-Devanahall,A,,IST,WFP1
10303058,,Karnataka-Hubli,01/01/1900,Karnataka-Hubli,A,,IST,WFP1
10303059,,Karnataka-Peenya Bl2,01/01/1900,Karnataka-Peenya Bl2,A,,IST,WFP1
10303060,,Karnataka-Koramangala 2,01/01/1900,Karnataka-Koramangala 2,A,,IST,WFP1
10033003,,Andhra Pradesh-Vishakhapatnam,01/01/1900,Andhra Pradesh-Vishakhapatnam,A,,IST,1000
10303061,,Karnataka-Peenya Phase2,01/01/1900,Karnataka-Peenya Phase2,A,,IST,WFP1
10303062,,Karnataka-EC3,01/01/1900,Karnataka-EC3,A,,IST,WFP1
10303063,,Karnataka-EC4,01/01/1900,Karnataka-EC4,A,,IST,WFP1
10303085,,Karnataka-Bangalore RO,01/01/1900,Karnataka-Bangalore RO,A,,IST,WFP1
10313064,,Madhya Pradesh-Indore,01/01/1900,Madhya Pradesh-Indore,A,,IST,WFP1
10323065,,Maharashtra-Airoli,01/01/1900,Maharashtra-Airoli,A,,IST,WFP1
10323066,,Maharashtra-Pune,01/01/1900,Maharashtra-Pune,A,,IST,WFP1
10323067,,Maharashtra-Bhiwandi,01/01/1900,Maharashtra-Bhiwandi,A,,IST,WFP1
10323068,,Maharashtra-Bandra,01/01/1900,Maharashtra-Bandra,A,,IST,WFP1
10323083,,Maharashtra-Katraj,01/01/1900,Maharashtra-Katraj,A,,IST,WFP1
10323084,,Maharashtra-Shirwal,01/01/1900,Maharashtra-Shirwal,A,,IST,WFP1
10323086,,Maharashtra-Nagpur ROM,01/01/1900,Maharashtra-Nagpur ROM,A,,IST,WFP1
10333069,,Rajasthan-Jaipur,01/01/1900,Rajasthan-Jaipur,A,,IST,WFP1
10343070,,Tamil Nadu-Irngtk Che,01/01/1900,Tamil Nadu-Irngtk Che,A,,IST,WFP1
10343071,,Tamil Nadu-Chennai,01/01/1900,Tamil Nadu-Chennai,A,,IST,WFP1
10353072,,Telangana-Hyderabad,01/01/1900,Telangana-Hyderabad,A,,IST,WFP1
10363073,,Uttar Pradesh-Lucknow,01/01/1900,Uttar Pradesh-Lucknow,A,,IST,WFP1
10373074,,West Bengal-Kolkata,01/01/1900,West Bengal-Kolkata,A,,IST,WFP1
10383075,,Maharashtra-Airoli,01/01/1900,Maharashtra-Airoli,A,,IST,WFP9
10383076,,Maharashtra-Pune,01/01/1900,Maharashtra-Pune,A,,IST,WFP9
10383077,,Maharashtra-Bhiwandi,01/01/1900,Maharashtra-Bhiwandi,A,,IST,WFP9
10393038,,Tamil Nadu-Chennai,01/01/1900,Tamil Nadu-Chennai,A,,IST,1000
10033004,,Andhra Pradesh-Vijayawada,01/01/1900,Andhra Pradesh-Vijayawada,A,,IST,1000
10033080,,Andhra Pradesh-Tirupati Godown,01/01/1900,Andhra Pradesh-Tirupati Godown,A,,IST,1000
10403079,,Nepal-Nepal,01/01/1900,Nepal-Nepal,A,,IST,1000
10413087,,Romania-Ramnicu Valcea,01/01/1900,Romania-Ramnicu Valcea,A,,IST,WFP1
10413088,,Romania-Bucharest,01/01/1900,Romania-Bucharest,A,,IST,WFP1
10423089,,Sweden-Ostersund,01/01/1900,Sweden-Ostersund,A,,IST,WFP1
10423090,,Sweden-Skelleftea,01/01/1900,Sweden-Skelleftea,A,,IST,WFP1
10423091,,Sweden-Bispgarden,01/01/1900,Sweden-Bispgarden,A,,IST,WFP1
10423092,,Sweden-Ljungby,01/01/1900,Sweden-Ljungby,A,,IST,WFP1
10433093,,Hydraulics US-Pennsylvania,01/01/1900,Hydraulics US-Pennsylvania,A,,IST,WFP1
10443094,,Germany-Wurmlingen,01/01/1900,Germany-Wurmlingen,A,,IST,WFP1
10453095,,Givon US-Everett,01/01/1900,Givon US-Everett,A,,IST,WFP1
10463096,,Givon Israel-Kiryat Bialik,01/01/1900,Givon Israel-Kiryat Bialik,A,,IST,WFP1
10473097,,Odisha-Bhubaneshwar,01/01/1900,Odisha-Bhubaneshwar,A,,IST,WFP1
10483098,,Assam-Guwahati,01/01/1900,Assam-Guwahati,A,,IST,WFP1
10493099,,Brazil-Piracicaba,01/01/1900,Brazil-Piracicaba,A,,IST,WFP1
10503100,,Sri Lanka-Sri Lanka,01/01/1900,Sri Lanka-Sri Lanka,A,,IST,1000
10513101,,Finland-Pernio,01/01/1900,Finland-Pernio,A,,IST,WFP1
10523102,,Telangana-Hyderabad,01/01/1900,Telangana-Hyderabad,A,,IST,1000
10143032,,Malaysia-Kualalumpur,01/01/1900,Malaysia-Kualalumpur,A,,Asia/Singapore,1000
10163034,,Philippines-Manila,01/01/1900,Philippines-Manila,A,,Asia/Singapore,1000
10183036,,Singapore-Singapore,01/01/1900,Singapore-Singapore,A,,Asia/Singapore,1000
10193037,,Thailand-Bangkok,01/01/1900,Thailand-Bangkok,A,,Asia/Bangkok,1000
10203040,,United Kingdom-London,01/01/1900,United Kingdom-London,A,,Europe/London,1000
10233044,,Vietnam-HCM,01/01/1900,Vietnam-HCM,A,,Asia/Vientiane,1000
