effectiveStartDate,Designation_Code,Designation_Description,Job_Role_Code,Job_Role_Description
1/1/1900,2000,Accounts Executive,60000000,Accounts Executive
1/1/1900,2001,Senior Accounts Executive,60000000,Accounts Executive
1/1/1900,2002,Accounts Manager,60000001,Accounts Manager
1/1/1900,2003,Assistant  Manager - Accounts,60000001,Accounts Manager
1/1/1900,2004,Senior Manager - Accounts,60000001,Accounts Manager
1/1/1900,2005,Area Sales Manager,60000002,Area Sales Manager
1/1/1900,2006,Area Manager,60000002,Area Sales Manager
1/1/1900,2006,Area Manager,60000003,Area Sales Manager (B2B)
1/1/1900,2007,Assistant Manager - Sales,60000002,Area Sales Manager
1/1/1900,2007,Assistant Manager - Sales,60000080,Marketing Executive
1/1/1900,2008,Assistant Manager - Sales (Rural),60000002,Area Sales Manager
1/1/1900,2009,Senior Area Manager,60000002,Area Sales Manager
1/1/1900,2011,Senior Project Manager – Smart & Connected,60000003,Area Sales Manager (B2B)
1/1/1900,2012,Territory Manager,60000003,Area Sales Manager (B2B)
1/1/1900,2013,Accounts Execuive,60000004,Branch Account Executive
1/1/1900,2014,Accounts Officer,60000004,Branch Account Executive
1/1/1900,2015,Associate Accountant,60000004,Branch Account Executive
1/1/1900,2016,Branch Acccounts Executive,60000004,Branch Account Executive
1/1/1900,2017,Executive-Support,60000004,Branch Account Executive
1/1/1900,2018,Assistant Manager - Warehouse,60000005,Branch Operation Executive
1/1/1900,2019,Branch Executive,60000005,Branch Operation Executive
1/1/1900,2020,Branch Officer,60000005,Branch Operation Executive
1/1/1900,2021,Regional Logstics Executive,60000005,Branch Operation Executive
1/1/1900,2022,Senior Branch Executive,60000005,Branch Operation Executive
1/1/1900,2023,Senior General Manager - Branch Operations,60000006,Branch Operation Head
1/1/1900,2024,Logistics Executive,60000007,Branch Operations Executive
1/1/1900,2025,Senior Executive - Hub Operations,60000007,Branch Operations Executive
1/1/1900,2026,Sourcing Executive,60000007,Branch Operations Executive
1/1/1900,2027,Regional Logistics Executive,60000008,Branch Ops Executive
1/1/1900,2028,Brand Advisor Executive,60000009,Brand Advisor Executive
1/1/1900,2029,Brand Executive,60000010,Brand Executive
1/1/1900,2030,Marketing Communications Executive,60000010,Brand Executive
1/1/1900,2031,Senior Brand Executive,60000010,Brand Executive
1/1/1900,2032,Assistant Brand Manager,60000011,Brand Manager
1/1/1900,2033,Brand Manager,60000011,Brand Manager
1/1/1900,2034,Senior Brand Manager,60000011,Brand Manager
1/1/1900,2035,Senior Manager - Home Care Category,60000011,Brand Manager
1/1/1900,2036,Senior Manager - IP,60000011,Brand Manager
1/1/1900,2037,Assistant Manager - Business Development,60000012,Business Development Manager
1/1/1900,2038,General Manager – Business Development,60000013,Business Devlopment Head
1/1/1900,2039,Business Finance Manager,60000014,Business Finance Manager
1/1/1900,2040,General Manager - Manufacturing Finance,60000014,Business Finance Manager
1/1/1900,2041,Group  Manager- Business Finance,60000014,Business Finance Manager
1/1/1900,2042,Manager - Finance,60000014,Business Finance Manager
1/1/1900,2043,Senior Manager - Business Finance,60000014,Business Finance Manager
1/1/1900,2044,"C E O-Splash, Thailand  & Myanmar",60000016,Business Unit Head
1/1/1900,2045,President - Consumer Care Business,60000016,Business Unit Head
1/1/1900,2046,"Senior Vice President - Technology, Lighting Business",60000016,Business Unit Head
1/1/1900,2047,Senior Vice President-Consumer Lighting & Switches,60000016,Business Unit Head
1/1/1900,2048,Vice President - Furniture Business,60000016,Business Unit Head
1/1/1900,2049,Vice President and Business Head Yardley India,60000016,Business Unit Head
1/1/1900,2050,Vice President-C&I Lighting Business,60000016,Business Unit Head
1/1/1900,2051,Category Manager,60000017,Category Manager
1/1/1900,2052,General Manager-Marketing-Personal Wash,60000017,Category Manager
1/1/1900,2053,Marketing Manager,60000017,Category Manager
1/1/1900,2054,C F O -Splash Philippines,60000019,Chief Financial Officer
1/1/1900,2055,Senior VP - CFO Wipro Consumer Care Intl Business,60000019,Chief Financial Officer
1/1/1900,2056,Senior General Manager-Finance India & Yardley,60000019,Chief Financial Officer
1/1/1900,2057,Senior Vice President - Human Resource,60000020,Chief Human Resource Officer
1/1/1900,2058,Chief Operating Officer,60000021,Chief Operating Officer
1/1/1900,2059,Senior Commercial Executive,60000022,Commercial Executive
1/1/1900,2059,Senior Commercial Executive,60000039,Finance Executive
1/1/1900,2060,Senior Manager - Commercial,60000023,Commercial Manager
1/1/1900,2060,Senior Manager - Commercial,60000111,Regional Commercial Manager
1/1/1900,2061,Senior Executive - Import,60000024,Commodities Executive
1/1/1900,2062,Assistant Manager - Commodities,60000025,Commodities Manager
1/1/1900,2063,Manager - Commodities,60000025,Commodities Manager
1/1/1900,2064,Branch Controller,60000026,Controllership Manager
1/1/1900,2065,Group  Manager - Controllership,60000026,Controllership Manager
1/1/1900,2066,Manager,60000026,Controllership Manager
1/1/1900,2067,Senior Manager - HR,60000027,Corporate HR
1/1/1900,2067,Senior Manager - HR,60000051,HR Business Partner
1/1/1900,2068,Business Manager,60000028,Country Sales Manager
1/1/1900,2069,Country Manager – Consumer Care Business,60000028,Country Sales Manager
1/1/1900,2070,Senior Business Manager - Sri Lanka,60000028,Country Sales Manager
1/1/1900,2071,Design- Trainee,60000029,Design Executive
1/1/1900,2072,Executive - Product Development,60000029,Design Executive
1/1/1900,2073,Senior Executive Product Management,60000029,Design Executive
1/1/1900,2074,General Manager-Product Design,60000030,Design Head
1/1/1900,2075,Head - Design,60000030,Design Head
1/1/1900,2076,Assistant Manager - Product Customization,60000031,Design Manager
1/1/1900,2077,Assistant Manager - Product Development,60000031,Design Manager
1/1/1900,2078,Assistant Manager - Design & Development,60000031,Design Manager
1/1/1900,2079,Group Manager - Embedded Design,60000031,Design Manager
1/1/1900,2080,Manager - Product Design,60000031,Design Manager
1/1/1900,2081,Manager -Product Development,60000031,Design Manager
1/1/1900,2082,Manager-Product Development,60000031,Design Manager
1/1/1900,2083,Senior Manager - Product Design,60000031,Design Manager
1/1/1900,2084,Business Consultant - D2C Brand,60000032,Ecommerce Head
1/1/1900,2085,Business Manager -  E Commerce,60000032,Ecommerce Head
1/1/1900,2086,Manager-D2C Marketing,60000033,Ecommerce Marketing Manager
1/1/1900,2087,Senior Manager - E Commerce,60000033,Ecommerce Marketing Manager
1/1/1900,2088,Senior Engineer - Electrical,60000034,Electrical Engineer
1/1/1900,2089,Assistant Manager-Engineering,60000035,Engineering Manager
1/1/1900,2090,Manager - Operations,60000036,Executive Assistant
1/1/1900,2091,Senior Manager - FMG,60000037,Facilities Management
1/1/1900,2092,General Manager - Manufacturing Engineering,60000038,Factory Head
1/1/1900,2093,Senior General Manager-Hyderabad Operations,60000038,Factory Head
1/1/1900,2094,Senior General Manager-Tumkur Operations,60000038,Factory Head
1/1/1900,2095,Senior General Manager-Waluj Operations,60000038,Factory Head
1/1/1900,2096,Business Finance Executive,60000039,Finance Executive
1/1/1900,2097,Senior Analyst,60000039,Finance Executive
1/1/1900,2099,Senior Executive- Accounts,60000039,Finance Executive
1/1/1900,2100,Senior Executive SAP-FICO,60000039,Finance Executive
1/1/1900,2101,Assistant Manager - Commercial,60000040,Finance Manager
1/1/1900,2102,Manager Finance,60000040,Finance Manager
1/1/1900,2103,Manager-Commercial,60000040,Finance Manager
1/1/1900,2104,CEO - Wipro Consumer Care & Lighting & E D - W E L,60000041,Global Chief Executive Officer
1/1/1900,2105,Senior General Manager - Modern Trade Channel,60000042,Head - Modern Trade
1/1/1900,2106,Vice President,60000043,Head Audit
1/1/1900,2107,General Manager - Commodities,60000044,Head Commodities
1/1/1900,2108,General Manager - IT,60000045,Head IT
1/1/1900,2109,General Manager-Information Systems,60000045,Head IT
1/1/1900,2110,General Manager - Manufacturing,60000046,Head Manufacturing
1/1/1900,2111,Vice President - Marketing,60000047,Head Marketing
1/1/1900,2112,Head - R&D,60000048,Head R&D
1/1/1900,2113,Head-Soap Development,60000048,Head R&D
1/1/1900,2114,"General Manager – Sales, Yardley India",60000049,Head Sales
1/1/1900,2115,Head - Sales (Metro),60000049,Head Sales
1/1/1900,2116,Senior General Manager - Smart & Connected,60000049,Head Sales
1/1/1900,2117,Senior General Manager-Sales,60000049,Head Sales
1/1/1900,2118,Senior Vice President - Consumer Sales,60000049,Head Sales
1/1/1900,2119,Senior General Manager - Emerging Channels & SAARC,60000049,Head Sales
1/1/1900,2121,"Vice President - Sales, Consumer Lighting",60000049,Head Sales
1/1/1900,2122,Senior General Manager - Supply Chain,60000050,Head Supply Chain
1/1/1900,2123,Assistant  Manager - H R,60000051,HR Business Partner
1/1/1900,2124,Group HR Manager,60000051,HR Business Partner
1/1/1900,2125,Head - H R Haridwar,60000051,HR Business Partner
1/1/1900,2126,Lead Talent Transformation - MT,60000051,HR Business Partner
1/1/1900,2127,Management Trainee-HR,60000051,HR Business Partner
1/1/1900,2128,Manager - HR,60000051,HR Business Partner
1/1/1900,2129,Regional Hr Executive,60000051,HR Business Partner
1/1/1900,2131,Senior Manager - HR (B2B Business),60000051,HR Business Partner
1/1/1900,2132,Executive - HR,60000052,HR Executive
1/1/1900,2133,Senior  Welfare Officer,60000052,HR Executive
1/1/1900,2134,Welfare Officer,60000052,HR Executive
1/1/1900,2135,Senior Manager-Global IDT Consumer Care,60000053,Indirect Taxation Manager
1/1/1900,2136,Business Manager - Institutional Sales,60000054,Institutional Sales Manager
1/1/1900,2137,Manager- Internal Audit,60000055,Internal Audit Manager
1/1/1900,2138,Senior Manager - Internal Audit,60000055,Internal Audit Manager
1/1/1900,2139,Channel Sales Manager – General Trade,60000056,International
1/1/1900,2140,Chief Executive -Wipro Unza Indonesia,60000056,International
1/1/1900,2141,Chief Executive-Wipro Unza Malaysia,60000056,International
1/1/1900,2142,"Chief Financial Officer, Vietnam",60000056,International
1/1/1900,2143,Country Head - Thailand,60000056,International
1/1/1900,2144,General Manager - Wipro Unza Middle East,60000056,International
1/1/1900,2145,General Manager & Business Head-Africa & Overseas,60000056,International
1/1/1900,2146,Liaison Manager - Human Resources,60000056,International
1/1/1900,2147,"Liaison Manager, Manufg, Operations & R&D",60000056,International
1/1/1900,2148,Manager - Lighting Products,60000056,International
1/1/1900,2149,Manager - Production & Projects,60000056,International
1/1/1900,2150,President - South East Asia & MENA Region,60000056,International
1/1/1900,2151,"President-East Asia, Africa & UK Business + BD",60000056,International
1/1/1900,2152,Product Manager,60000056,International
1/1/1900,2153,"Regional Manager, Indonesia",60000056,International
1/1/1900,2154,Senior Business Manager,60000056,International
1/1/1900,2155,Senior Marketing Manager,60000056,International
1/1/1900,2156,Senior Regional Director - Group HR,60000056,International
1/1/1900,2157,Senior Vice President & Regional Director Operations,60000056,International
1/1/1900,2158,Vice President-Wipro Unza & Yardley ME,60000056,International
1/1/1900,2159,Assistant Manager - Systems,60000057,IT Executive
1/1/1900,2160,Executive-IT,60000057,IT Executive
1/1/1900,2161,Senior Executive-System,60000057,IT Executive
1/1/1900,2162,Assistant Manager,60000058,IT Manager
1/1/1900,2163,Assistant Manager - IT Projects,60000058,IT Manager
1/1/1900,2164,Assistant Manager- Systems,60000058,IT Manager
1/1/1900,2165,Manager - Systems,60000058,IT Manager
1/1/1900,2166,Key Accounts Excecutive,60000059,Key Account Executive
1/1/1900,2167,Senior Key Accounts Executive,60000059,Key Account Executive
1/1/1900,2168,Key Account Manager,60000060,Key Account Manager
1/1/1900,2169,Key Account Manager – Modern Trade,60000060,Key Account Manager
1/1/1900,2170,Key Account Manager - Smart & Connected,60000060,Key Account Manager
1/1/1900,2171,Manager Key Accounts,60000060,Key Account Manager
1/1/1900,2172,Senior Key Accounts Manager,60000060,Key Account Manager
1/1/1900,2173,Senior Manager- Key Accounts,60000060,Key Account Manager
1/1/1900,2174,Account Manager,60000061,Key Account Manager(B2B)
1/1/1900,2175,Senior Key Account Manager,60000061,Key Account Manager(B2B)
1/1/1900,2176,Senior Manager - Key Accounts,60000061,Key Account Manager(B2B)
1/1/1900,2177,Senior Manager - Strategic Accounts,60000061,Key Account Manager(B2B)
1/1/1900,2178,Assistant Manager - Legal,60000062,Legal Manager
1/1/1900,2179,Manager Legal and Compliance,60000062,Legal Manager
1/1/1900,2180,Senior Manager-Legal,60000062,Legal Manager
1/1/1900,2181,Executive - Lighting Solutions,60000063,Lighting Solutions Group Executive
1/1/1900,2182,Senior Executive - Lighting Solution,60000063,Lighting Solutions Group Executive
1/1/1900,2183,Senior Executive - Smart & Connected,60000063,Lighting Solutions Group Executive
1/1/1900,2184,Group Manager - Lighting Technology,60000064,Lighting Solutions Group Head
1/1/1900,2185,Assistant Manager-LSG,60000065,Lighting Solutions Group Manager
1/1/1900,2186,Assistant Manager - Lighting Solutions,60000065,Lighting Solutions Group Manager
1/1/1900,2187,Group Manager – Lighting Solutions,60000065,Lighting Solutions Group Manager
1/1/1900,2188,Manager - Lighting Solutions,60000065,Lighting Solutions Group Manager
1/1/1900,2188,Manager - Lighting Solutions,60000075,Manager Technology
1/1/1900,2189,Senior Manager Lighting Solutions,60000065,Lighting Solutions Group Manager
1/1/1900,2190,Senior Executive - Logistics,60000066,Logistics Executive
1/1/1900,2190,Senior Executive - Logistics,60000140,Supply Chain Executive
1/1/1900,2191,Assistant Manager - Logistics,60000067,Logistics Manager
1/1/1900,2191,Assistant Manager - Logistics,60000085,Materials Manager
1/1/1900,2192,Manager-Logistics,60000067,Logistics Manager
1/1/1900,2193,Manager-Sourcing & Logistics,60000067,Logistics Manager
1/1/1900,2194,Engineer - Mainteance,60000068,Maintenance Engineer
1/1/1900,2195,Junior Supervisor-Maintenance,60000068,Maintenance Engineer
1/1/1900,2196,Senior Engineer-Maintenance,60000068,Maintenance Engineer
1/1/1900,2197,Supervisor Maintenance,60000068,Maintenance Engineer
1/1/1900,2198,Junior Supervisor - Maintance,60000069,Maintenance Executive
1/1/1900,2199,Senior Instrumentation Engineer,60000069,Maintenance Executive
1/1/1900,2200,Assistant  Manager - Maintenance,60000070,Maintenance Manager
1/1/1900,2201,Assistant Manager - Instrumentation,60000070,Maintenance Manager
1/1/1900,2202,Manager - Electrical Maintenance,60000070,Maintenance Manager
1/1/1900,2203,Manager - Maintenance,60000070,Maintenance Manager
1/1/1900,2204,Senior Manager - Engineering,60000070,Maintenance Manager
1/1/1900,2205,Senior Manager-Maintenance,60000070,Maintenance Manager
1/1/1900,2206,Senior Engineer - Maintenance,60000071,Maintenance Officer
1/1/1900,2207,Management Trainee,60000072,Management Trainee
1/1/1900,2208,Senior Marketing Executive,60000072,Management Trainee
1/1/1900,2209,Assistant Manager - Safety,60000073,Manager - Safety
1/1/1900,2210,Manager Safety,60000073,Manager - Safety
1/1/1900,2211,Manager Six Sigma,60000074,Manager Six Sigma
1/1/1900,2212,Senior Manager - Six Sigma,60000074,Manager Six Sigma
1/1/1900,2214,Civil Engineer,60000076,Manufacturing Executive
1/1/1900,2215,Junior Supervisor,60000076,Manufacturing Executive
1/1/1900,2216,Mold Engineer,60000076,Manufacturing Executive
1/1/1900,2217,Senior  Manufacturing Executive,60000076,Manufacturing Executive
1/1/1900,2218,Senior Engineer - Instrumentation,60000076,Manufacturing Executive
1/1/1900,2219,Senior Executive - Engineering,60000076,Manufacturing Executive
1/1/1900,2220,Senior Maintainance Engineer,60000076,Manufacturing Executive
1/1/1900,2221,Senior Manufacturing Executive,60000076,Manufacturing Executive
1/1/1900,2222,Senior Officer - TSP,60000076,Manufacturing Executive
1/1/1900,2223,Senior Officer-Maintenance,60000076,Manufacturing Executive
1/1/1900,2224,Senior Shift Officer,60000076,Manufacturing Executive
1/1/1900,2225,Senior Engineer - Electrical,60000076,Manufacturing Executive
1/1/1900,2226,Senior Process Engineer,60000076,Manufacturing Executive
1/1/1900,2227,Senior Engineer - FAGP,60000076,Manufacturing Executive
1/1/1900,2228,Asst Manager - Manufacturing,60000077,Manufacturing Manager
1/1/1900,2229,Engineer-Electrical,60000078,Manufacturing Officer
1/1/1900,2230,Executive - Tool Room,60000078,Manufacturing Officer
1/1/1900,2231,Junior Supervisor - Production & Maintenance,60000078,Manufacturing Officer
1/1/1900,2232,Junior Supervisor Maintenance,60000078,Manufacturing Officer
1/1/1900,2233,Junior Supervisor - GVB,60000078,Manufacturing Officer
1/1/1900,2234,Junior Supervisor - PCP,60000078,Manufacturing Officer
1/1/1900,2235,Junior Supervisor Maintenance,60000078,Manufacturing Officer
1/1/1900,2236,Junior Supervisor-Electrical Maintenance,60000078,Manufacturing Officer
1/1/1900,2237,Officer-Maintenance,60000078,Manufacturing Officer
1/1/1900,2238,Officer-Production,60000078,Manufacturing Officer
1/1/1900,2239,Senior Shift Engineer,60000078,Manufacturing Officer
1/1/1900,2240,Shift Engineer - Molding,60000078,Manufacturing Officer
1/1/1900,2241,Supervisor - Production,60000078,Manufacturing Officer
1/1/1900,2242,Supervisor - Production & Maintenance,60000078,Manufacturing Officer
1/1/1900,2243,Manager - Market Research,60000079,Market Research Manager
1/1/1900,2245,Executive - Marketing Operations,60000080,Marketing Executive
1/1/1900,2246,Executive Marketing Support,60000080,Marketing Executive
1/1/1900,2247,Marketing Executive,60000080,Marketing Executive
1/1/1900,2248,MIS Executive,60000080,Marketing Executive
1/1/1900,2249,Head - Marketing,60000081,Marketing Head
1/1/1900,2250,Group Manager Marketing,60000082,Marketing Manager
1/1/1900,2251,Manager - Marketing Communication,60000082,Marketing Manager
1/1/1900,2252,Marketing Controller,60000082,Marketing Manager
1/1/1900,2253,Material Executive,60000084,Materials Executive
1/1/1900,2254,Material Officer,60000083,Material Officer
1/1/1900,2255,Executive - Logistics,60000084,Materials Executive
1/1/1900,2256,Executive - Materials,60000084,Materials Executive
1/1/1900,2257,Executive - Store & Purchase,60000084,Materials Executive
1/1/1900,2258,Executive Stores,60000084,Materials Executive
1/1/1900,2259,Executive-Logistics,60000084,Materials Executive
1/1/1900,2260,Executive-Supply Chain,60000084,Materials Executive
1/1/1900,2261,Senior Executive - Materials,60000084,Materials Executive
1/1/1900,2262,Assistant  Manager -  Materials,60000085,Materials Manager
1/1/1900,2264,Assistant Manager - Purchase,60000085,Materials Manager
1/1/1900,2265,Controller- Materials,60000085,Materials Manager
1/1/1900,2266,Manager - Materials,60000085,Materials Manager
1/1/1900,2267,Manager - Order Management,60000085,Materials Manager
1/1/1900,2268,Manager-Planning,60000085,Materials Manager
1/1/1900,2269,Senior Manager-Materials,60000085,Materials Manager
1/1/1900,2270,Senior Manager - Supply Chain,60000085,Materials Manager
1/1/1900,2271,General Manager - Marketing Services,60000086,Media & Market Research Head
1/1/1900,2272,Manager - Media Planning,60000087,Media Planning Manager
1/1/1900,2273,Senior Payroll Specialist,60000088,Payroll Specialist
1/1/1900,2274,Executive-Planning,60000089,Planning Executive
1/1/1900,2275,Senior Executive - Vendor Development,60000089,Planning Executive
1/1/1900,2276,Assistant Manager - Planning,60000090,Planning Manager
1/1/1900,2277,General Manager - Materials & Logistics,60000090,Planning Manager
1/1/1900,2278,Manager - Manufacturing Operations,60000090,Planning Manager
1/1/1900,2279,Manager - Planning,60000090,Planning Manager
1/1/1900,2280,Senior Manager Planning & Logistics,60000090,Planning Manager
1/1/1900,2281,Factory Manager,60000038,Factory Head
1/1/1900,2282,Group Product Manager,60000092,Product Manager
1/1/1900,2283,Product Manager-Switches & Switchgear,60000092,Product Manager
1/1/1900,2284,Engineer,60000093,Production Engineer
1/1/1900,2285,Engineer - Production,60000093,Production Engineer
1/1/1900,2286,Engineer - Production & Maintenance,60000093,Production Engineer
1/1/1900,2287,Executive - Production,60000093,Production Engineer
1/1/1900,2288,Junior Supervisor,60000093,Production Engineer
1/1/1900,2288,Junior Supervisor,60000097,Production Officer
1/1/1900,2289,Junior Supervisor - Production,60000093,Production Engineer
1/1/1900,2290,Junior Supervisor - TSP,60000093,Production Engineer
1/1/1900,2291,Senior Engineer - Production,60000093,Production Engineer
1/1/1900,2292,Senior Engineer - Production & Maintenance,60000093,Production Engineer
1/1/1900,2293,Senior Executive-Production,60000093,Production Engineer
1/1/1900,2294,Senior Maintenance Engineer,60000093,Production Engineer
1/1/1900,2295,Senior Engineer - Civil & Structural,60000093,Production Engineer
1/1/1900,2296,Senior Shift Engineer,60000093,Production Engineer
1/1/1900,2297,Head - FAGP,60000094,Production Head
1/1/1900,2298,Head Production,60000094,Production Head
1/1/1900,2299,Senior General Manager - Manufacturing,60000094,Production Head
1/1/1900,2300,Assistant  Manager -  FAGP,60000095,Production Manager
1/1/1900,2301,Assistant  Manager -  PPC,60000095,Production Manager
1/1/1900,2302,Assistant  Manager -  Production,60000095,Production Manager
1/1/1900,2303,Assistant Manager- Moulding,60000095,Production Manager
1/1/1900,2304,Assistant Manager - Purchase,60000095,Production Manager
1/1/1900,2305,Assistant Manager - Stores,60000095,Production Manager
1/1/1900,2306,Manager – Production,60000095,Production Manager
1/1/1900,2307,Manager - Production - PCP,60000095,Production Manager
1/1/1900,2308,Manager - Switches,60000095,Production Manager
1/1/1900,2309,Manager FAGP,60000095,Production Manager
1/1/1900,2310,Operations Manager,60000095,Production Manager
1/1/1900,2311,Production Manager,60000095,Production Manager
1/1/1900,2312,Project Manager,60000095,Production Manager
1/1/1900,2313,Senior Manager - Materials,60000095,Production Manager
1/1/1900,2314,TSP Manager,60000095,Production Manager
1/1/1900,2315,Manager Production,60000095,Production Manager
1/1/1900,2316,Senior Executive Materials,60000097,Production Officer
1/1/1900,2317,Executive - Manufacturing,60000097,Production Officer
1/1/1900,2319,Junior Supervisor-Production & Maintenance,60000097,Production Officer
1/1/1900,2320,Junior Supervisor - CSP,60000097,Production Officer
1/1/1900,2321,Junior Supervisor - FAGP,60000097,Production Officer
1/1/1900,2322,Junior Supervisor - MCB,60000097,Production Officer
1/1/1900,2323,Junior Supervisor - Production,60000097,Production Officer
1/1/1900,2324,Production Executive CSP,60000097,Production Officer
1/1/1900,2325,Senior Engineer Production,60000097,Production Officer
1/1/1900,2326,Senior Executive - Production,60000097,Production Officer
1/1/1900,2327,Senior Shift Officer,60000097,Production Officer
1/1/1900,2328,Senior Engineer - Production,60000097,Production Officer
1/1/1900,2329,Senior Executive - Production,60000097,Production Officer
1/1/1900,2330,Senior Executive - Stores,60000097,Production Officer
1/1/1900,2331,Senior Executive -Stores & Dispatch,60000097,Production Officer
1/1/1900,2332,Stores Executive,60000097,Production Officer
1/1/1900,2333,Executive - Projects,60000098,Projects Executive
1/1/1900,2334,Senior Executive - Projects,60000098,Projects Executive
1/1/1900,2335,Assistant Manager - Projects,60000099,Projects Manager
1/1/1900,2336,Manager-Projects,60000099,Projects Manager
1/1/1900,2337,Senior Manager-Projects,60000099,Projects Manager
1/1/1900,2338,Q C Officer,60000100,QA Executive
1/1/1900,2339,Senior Engineer - Quality Assurance,60000101,Quality Engineer
1/1/1900,2340,Assistant Manager - Lighting Quality,60000102,Quality Executive
1/1/1900,2341,Assistant Manager - QA,60000102,Quality Executive
1/1/1900,2342,Engineer - Field Quality,60000102,Quality Executive
1/1/1900,2343,Engineer - QA,60000102,Quality Executive
1/1/1900,2344,Executive-Quality Assurance,60000102,Quality Executive
1/1/1900,2345,Field QAE,60000102,Quality Executive
1/1/1900,2346,QC Chemist,60000102,Quality Executive
1/1/1900,2347,Senior Engineer - Quality,60000102,Quality Executive
1/1/1900,2348,Senior Executive - QA & Sourcing,60000102,Quality Executive
1/1/1900,2349,Senior Executive - Quality Assurance,60000102,Quality Executive
1/1/1900,2350,Service Executive,60000102,Quality Executive
1/1/1900,2351,Senior Engineer - QA (EWD),60000102,Quality Executive
1/1/1900,2352,Supervisor - QC,60000102,Quality Executive
1/1/1900,2353,Testing Executive,60000102,Quality Executive
1/1/1900,2354,Group Manager - QA,60000103,Quality Head
1/1/1900,2355,Assistant  Manager - Quality & Machine Design Dev,60000104,Quality Manager
1/1/1900,2356,Assistant Manager - Services,60000104,Quality Manager
1/1/1900,2358,Manage - Quality Assurance,60000104,Quality Manager
1/1/1900,2359,Quality Manager - Furniture & C&I,60000104,Quality Manager
1/1/1900,2360,Senior Manager - MQM,60000104,Quality Manager
1/1/1900,2361,Senior Manager - Quality & Sourcing,60000104,Quality Manager
1/1/1900,2362,Senior Manager-Quality Assurance,60000104,Quality Manager
1/1/1900,2363,Senior Quality Control Manager,60000104,Quality Manager
1/1/1900,2364,Officer - QC,60000105,Quality Officer
1/1/1900,2365,Officer-QA,60000105,Quality Officer
1/1/1900,2366,Senior Manager- Analytical Science,60000106,R&D Analytics Manager
1/1/1900,2368,Microbilogist,60000107,R&D Executive
1/1/1900,2369,Officer-SDC,60000107,R&D Executive
1/1/1900,2370,Research Associate,60000107,R&D Executive
1/1/1900,2371,Senior Research Associate,60000107,R&D Executive
1/1/1900,2372,Senior Scientist-Microbiology,60000107,R&D Executive
1/1/1900,2373,Senior Scientist-Sensory Science,60000107,R&D Executive
1/1/1900,2374,Senior Executive - R&D,60000107,R&D Executive
1/1/1900,2375,Supervisor-Laboratory,60000107,R&D Executive
1/1/1900,2376,Manager - Packaging Development,60000108,R&D Packaging
1/1/1900,2377,Manager Product Development,60000109,R&D Product Development
1/1/1900,2378,Scientist- Product Development (Home & Personal),60000109,R&D Product Development
1/1/1900,2379,Senior Manager - Product Development,60000109,R&D Product Development
1/1/1900,2380,Assistant Manager - Accounts,60000110,Regional Accounts Manager
1/1/1900,2381,Assistant Manager - Regional Accounts,60000110,Regional Accounts Manager
1/1/1900,2382,Manager - Accounts,60000110,Regional Accounts Manager
1/1/1900,2383,Manager - Regional Accounts,60000110,Regional Accounts Manager
1/1/1900,2384,Regional Accounts Manager,60000110,Regional Accounts Manager
1/1/1900,2385,Group Manager - Materials & Planning,60000111,Regional Commercial Manager
1/1/1900,2386,Regional Commercial Manager,60000111,Regional Commercial Manager
1/1/1900,2388,"Regional Manager - South, Modern Trade",60000112,Regional Manager - Modern Trade
1/1/1900,2389,"Zonal Manager West, Modern Trade",60000112,Regional Manager - Modern Trade
1/1/1900,2390,Regional Manager,60000113,Regional Manager - Sales (B2B)
1/1/1900,2390,Regional Manager,60000114,Regional Manager Sales
1/1/1900,2391,Zonal Manager,60000113,Regional Manager - Sales (B2B)
1/1/1900,2392,General Manager - Sales,60000114,Regional Manager Sales
1/1/1900,2393,Group Manager - Institutional Sales,60000114,Regional Manager Sales
1/1/1900,2395,Sales Controller - Institutions,60000114,Regional Manager Sales
1/1/1900,2396,Zonal Manager-East,60000114,Regional Manager Sales
1/1/1900,2397,Manager- Risk and Compliance,60000115,Risk & Compliance Manager
1/1/1900,2398,Executive Safety & Security,60000116,Safety Officer
1/1/1900,2399,Senior Officer -  Safety,60000116,Safety Officer
1/1/1900,2400,General Manager - Sales (NW) & Marketing,60000117,Sales & Marketing Head
1/1/1900,2401,Consultant,60000118,Sales Consultant
1/1/1900,2402,Sales Consultant,60000118,Sales Consultant
1/1/1900,2403,Field Merchandising Executive,60000119,Sales Development Executive
1/1/1900,2404,Group Manager - Sales Development,60000120,Sales Development Manager
1/1/1900,2405,Sales Development Manager,60000120,Sales Development Manager
1/1/1900,2406,Trade Marketing Manager,60000120,Sales Development Manager
1/1/1900,2406,Trade Marketing Manager,60000121,Sales Development Manager - Modern Trade
1/1/1900,2408,National Sales Development Manager,60000122,Sales Devlopment Head
1/1/1900,2409,Sales Trainee,60000123,Sales Management Trainee
1/1/1900,2409,Sales Trainee,60000127,Sales Officer (B2B)
1/1/1900,2410,Manager - Key Accounts,60000124,Sales Manager (B2B)
1/1/1900,2411,Sales Controller,60000124,Sales Manager (B2B)
1/1/1900,2412,Senior Manager-Key Accts & LED Lighting,60000124,Sales Manager (B2B)
1/1/1900,2413,Manager – E Commerce Sales,60000125,Sales Manager Ecommerce
1/1/1900,2414,Senior Manager - E Commerce Sales,60000125,Sales Manager Ecommerce
1/1/1900,2415,Zonal Manager - E Commerce Sales,60000125,Sales Manager Ecommerce
1/1/1900,2416,Area Sales Executive,60000126,Sales Officer
1/1/1900,2416,Area Sales Executive,60000127,Sales Officer (B2B)
1/1/1900,2417,Sales Executive,60000126,Sales Officer
1/1/1900,2418,Sales Officer,60000126,Sales Officer
1/1/1900,2419,Senior Area Sales Executive,60000126,Sales Officer
1/1/1900,2420,Senior Sales Executive,60000126,Sales Officer
1/1/1900,2421,Senior Territory Sales Executive,60000126,Sales Officer
1/1/1900,2422,Senior Sales Executive,60000126,Sales Officer
1/1/1900,2423,Territory Sales Executive,60000126,Sales Officer
1/1/1900,2424,Territory Sales Incharge,60000126,Sales Officer
1/1/1900,2427,Functional Consultant SAP,60000128,SAP Functional Consultant
1/1/1900,2428,General Manager - HR,60000129,Senior HR Business Partner
1/1/1900,2429,Head - Employee Relations,60000129,Senior HR Business Partner
1/1/1900,2430,Senior Executive-Customer Support,60000130,Service Executive
1/1/1900,2431,Assistant Manager - Service,60000131,Service Manager
1/1/1900,2432,Manager - Process Control,60000131,Service Manager
1/1/1900,2433,Manager-Service,60000131,Service Manager
1/1/1900,2434,Senior Executive,60000132,Shared Services Executive
1/1/1900,2435,Senior Manager,60000133,Shared Services Head
1/1/1900,2436,Solution Architect - Smart & Connected,60000134,Smart & Connected Manager
1/1/1900,2437,Senior Manager - Smart & Connected,60000134,Smart & Connected Manager
1/1/1900,2438,Senior Executive-Space Solutions,60000135,Space Solutions Group Executive
1/1/1900,2439,Assistant Manager - Space Solutions,60000136,Space Solutions Group Manager
1/1/1900,2440,Assistant Manager SSG,60000136,Space Solutions Group Manager
1/1/1900,2441,Manager - Space Solutions,60000136,Space Solutions Group Manager
1/1/1900,2442,Manager-SSG,60000136,Space Solutions Group Manager
1/1/1900,2443,Executive - Purchase,60000137,Stores Executive
1/1/1900,2444,Executive - Stores,60000137,Stores Executive
1/1/1900,2445,Executive Dispatch,60000137,Stores Executive
1/1/1900,2446,Senior Commercial Executive,60000137,Stores Executive
1/1/1900,2447,Senior Executive Stores,60000137,Stores Executive
1/1/1900,2448,Senior General Manager - Commercial,60000138,Stores Head
1/1/1900,2449,Manager - Strategic Initiatives,60000139,Strategic Initiatives Manager
1/1/1900,2450,E Commerce Executive,60000140,Supply Chain Executive
1/1/1900,2451,Executive - Exports,60000140,Supply Chain Executive
1/1/1900,2452,Senior Executive - Exports & Imports,60000140,Supply Chain Executive
1/1/1900,2454,Senior Executive-Sourcing,60000140,Supply Chain Executive
1/1/1900,2455,Assistant Manager SCM,60000141,Supply Chain Manager
1/1/1900,2456,Group Manager - Materials & Logistics,60000141,Supply Chain Manager
1/1/1900,2457,Manager - Operation,60000141,Supply Chain Manager
1/1/1900,2458,Manager - Supply Chain,60000141,Supply Chain Manager
1/1/1900,2459,Manager-Sourcing,60000141,Supply Chain Manager
1/1/1900,2460,Senior Manager - Sourcing,60000141,Supply Chain Manager
1/1/1900,2461,Senior Executive – Indirect Taxation,60000142,Taxation Executive
1/1/1900,2462,Manager - Taxation,60000143,Taxation Manager
1/1/1900,2463,Senior Utility Engineer,60000144,Utility Engineer
1/1/1900,2465,Head Utilities,60000146,Utility Head
1/1/1900,2466,Assistant Manager - Engineering & Utility,60000147,Utility Manager
1/1/1900,2467,Utility and EMS Operation Manager,60000147,Utility Manager
1/1/1900,2468,Utility Manager - Hyderabad,60000147,Utility Manager
1/1/1900,2469,Boiler Attendant,60000148,Utility Officer
1/1/1900,2470,Boiler Operator,60000148,Utility Officer
1/1/1900,2471,Engineer - Utilities,60000148,Utility Officer
1/1/1900,2472,Junior Supervisor - Utility,60000148,Utility Officer
1/1/1900,2473,Supervisor - Utility,60000148,Utility Officer
1/1/1900,2474,"Managing Partner, Wipro Consumer Care -Ventures",60000149,Venture Capital Head
1/1/1900,2475,Associate,60000150,Venture Capital Manager
1/1/1900,2478,"CEO, Wipro Infrastructure Engineering",60000151,VICE PRESIDENT - WIN
1/1/1900,2479,SVP & Global Sales Head,60000151,VICE PRESIDENT - WIN
1/1/1900,2480,Vice President and Business Head Wipro3D,60000151,VICE PRESIDENT - WIN
1/1/1900,2481,Vice President - Global Initiatives and Quality,60000151,VICE PRESIDENT - WIN
1/1/1900,2482,Vice President & Head - WIN Americas,60000151,VICE PRESIDENT - WIN
1/1/1900,2483,Senior Vice President - Global Operations,60000151,VICE PRESIDENT - WIN
1/1/1900,2484,Senior Vice President & Head Aerospace - WIN India,60000151,VICE PRESIDENT - WIN
1/1/1900,2485,Senior Vice President & Head - Automation Solution,60000151,VICE PRESIDENT - WIN
1/1/1900,2486,Vice President - Wipro Water,60000151,VICE PRESIDENT - WIN
1/1/1900,2487,General Manager - Product & Process Quality,60000152,GENERAL MANAGER - WIN
1/1/1900,2488,General Manager & Head Operations - Peenya Plant,60000152,GENERAL MANAGER - WIN
1/1/1900,2489,General Manager - Strategic Sales & Marketing,60000152,GENERAL MANAGER - WIN
1/1/1900,2490,General Manager & Head - Production Engineering,60000152,GENERAL MANAGER - WIN
1/1/1900,2491,General Manager & National Sales Head - TH,60000152,GENERAL MANAGER - WIN
1/1/1900,2492,General Manager & Head Finance - Global Hydraulics,60000152,GENERAL MANAGER - WIN
1/1/1900,2493,General Manager & National Sales Head - India,60000152,GENERAL MANAGER - WIN
1/1/1900,2494,"General Manager & Finance Head-A&D, New Business,M&As",60000152,GENERAL MANAGER - WIN
1/1/1900,2495,General Manager & Head - Group Human Resources,60000152,GENERAL MANAGER - WIN
1/1/1900,2496,General Manager and Head - Global Sourcing,60000152,GENERAL MANAGER - WIN
1/1/1900,2497,"General Manager - Human Resources,India Operations",60000152,GENERAL MANAGER - WIN
1/1/1900,2498,Head - Sales,60000152,GENERAL MANAGER - WIN
1/1/1900,2499,Head - Operations,60000152,GENERAL MANAGER - WIN
1/1/1900,2500,Head - Engineering,60000152,GENERAL MANAGER - WIN
1/1/1900,2501,Program Director - Addwize,60000152,GENERAL MANAGER - WIN
1/1/1900,2502,Head - Engineering & Technical Services,60000152,GENERAL MANAGER - WIN
1/1/1900,2503,Head - Product Strategy & Development,60000153,HEAD - FUNCTION - WIN
1/1/1900,2504,Senior Manager - Finance,60000153,HEAD - FUNCTION - WIN
1/1/1900,2505,Head-New Product Introduction,60000153,HEAD - FUNCTION - WIN
1/1/1900,2506,Senior Manager - NPI,60000153,HEAD - FUNCTION - WIN
1/1/1900,2507,"Head - R&D, Double Acting Cylinders",60000153,HEAD - FUNCTION - WIN
1/1/1900,2508,Head - Taxation,60000153,HEAD - FUNCTION - WIN
1/1/1900,2509,Head - Europe Sourcing,60000153,HEAD - FUNCTION - WIN
1/1/1900,2510,Head - Services,60000153,HEAD - FUNCTION - WIN
1/1/1900,2511,"Plant Head - Cylinder Rod Plant, Hindupur",60000153,HEAD - FUNCTION - WIN
1/1/1900,2512,Head - IOT & Telematics,60000153,HEAD - FUNCTION - WIN
1/1/1900,2513,Head Operations - Chennai,60000153,HEAD - FUNCTION - WIN
1/1/1900,2514,Head - Engineering,60000153,HEAD - FUNCTION - WIN
1/1/1900,2515,Head - Finance & Commercial,60000153,HEAD - FUNCTION - WIN
1/1/1900,2516,Head - National Sales,60000153,HEAD - FUNCTION - WIN
1/1/1900,2517,Head - Projects,60000153,HEAD - FUNCTION - WIN
1/1/1900,2518,Senior Manager - Production Engineering,60000154,HEAD FUNCTION /SENIOR MANAGER - WIN
1/1/1900,2519,"Head Operations, Cylinder Plant Hindupur",60000154,HEAD FUNCTION /SENIOR MANAGER - WIN
1/1/1900,2520,Senior Manager - Global Initiatives,60000154,HEAD FUNCTION /SENIOR MANAGER - WIN
1/1/1900,2521,Production Lead - Dumper Plant,60000154,HEAD FUNCTION /SENIOR MANAGER - WIN
1/1/1900,2522,"Head - C&B, Compliance & Digitisation",60000154,HEAD FUNCTION /SENIOR MANAGER - WIN
1/1/1900,2523,"Category Manager-R&D, Construction & Agri Products",60000154,HEAD FUNCTION /SENIOR MANAGER - WIN
1/1/1900,2524,Senior Manager - Application Engineering,60000154,HEAD FUNCTION /SENIOR MANAGER - WIN
1/1/1900,2525,Senior Manager - Sourcing,60000154,HEAD FUNCTION /SENIOR MANAGER - WIN
1/1/1900,2526,Category Manager - Material Handling & Special Cyl,60000154,HEAD FUNCTION /SENIOR MANAGER - WIN
1/1/1900,2527,"Head - Human Resources,Hindupur Plants",60000154,HEAD FUNCTION /SENIOR MANAGER - WIN
1/1/1900,2528,Head - India Quality,60000154,HEAD FUNCTION /SENIOR MANAGER - WIN
1/1/1900,2529,"Head - Research and development, WIN Europe",60000154,HEAD FUNCTION /SENIOR MANAGER - WIN
1/1/1900,2530,Head-Commercial,60000154,HEAD FUNCTION /SENIOR MANAGER - WIN
1/1/1900,2531,Head- Smart Factories,60000154,HEAD FUNCTION /SENIOR MANAGER - WIN
1/1/1900,2532,Head - Human Resources,60000154,HEAD FUNCTION /SENIOR MANAGER - WIN
1/1/1900,2533,Head - Global Initiatives India,60000154,HEAD FUNCTION /SENIOR MANAGER - WIN
1/1/1900,2534,Senior Manager - Information Systems,60000155,SENIOR MANAGER - WIN
1/1/1900,2535,Senior Manager - Sales & Strategic Accounts,60000155,SENIOR MANAGER - WIN
1/1/1900,2536,Senior Manager - Product Support & Sales,60000155,SENIOR MANAGER - WIN
1/1/1900,2537,Senior Manager-Strategic Sales Continental Europe,60000155,SENIOR MANAGER - WIN
1/1/1900,2538,Senior Manager - Quality,60000155,SENIOR MANAGER - WIN
1/1/1900,2539,Manager - Production,60000155,SENIOR MANAGER - WIN
1/1/1900,2540,Senior Manager - Key Accounts,60000155,SENIOR MANAGER - WIN
1/1/1900,2541,Senior Manager - Production Engineering,60000155,SENIOR MANAGER - WIN
1/1/1900,2542,Manager - Plant Engineering,60000155,SENIOR MANAGER - WIN
1/1/1900,2543,Senior Manager - SS&SCM,60000155,SENIOR MANAGER - WIN
1/1/1900,2544,Manager - Production Engineering,60000155,SENIOR MANAGER - WIN
1/1/1900,2545,Senior Manager - Manufacturing,60000155,SENIOR MANAGER - WIN
1/1/1900,2546,Manager - R & D - India Design Center,60000155,SENIOR MANAGER - WIN
1/1/1900,2547,"Senior Manager - Product Development, TH",60000155,SENIOR MANAGER - WIN
1/1/1900,2548,Manager-R&D Process Excellence,60000155,SENIOR MANAGER - WIN
1/1/1900,2549,Category Manager - Defence & Industrial Hydraulics,60000155,SENIOR MANAGER - WIN
1/1/1900,2550,Senior Manager - Plant Engineering,60000155,SENIOR MANAGER - WIN
1/1/1900,2551,Manager - Quality (A&D),60000155,SENIOR MANAGER - WIN
1/1/1900,2552,Senior Manager - Global Initiatives,60000155,SENIOR MANAGER - WIN
1/1/1900,2553,Senior Manager Production (TH&ECP),60000155,SENIOR MANAGER - WIN
1/1/1900,2554,Senior Manager - Legal,60000155,SENIOR MANAGER - WIN
1/1/1900,2555,Manager - Finance,60000155,SENIOR MANAGER - WIN
1/1/1900,2556,"Manager - HR , Aerospace & Defence",60000155,SENIOR MANAGER - WIN
1/1/1900,2557,Senior Manager - Infrastructure,60000155,SENIOR MANAGER - WIN
1/1/1900,2558,Head - Post Processing,60000155,SENIOR MANAGER - WIN
1/1/1900,2559,Senior Manager - Material,60000155,SENIOR MANAGER - WIN
1/1/1900,2560,Head - PED,60000155,SENIOR MANAGER - WIN
1/1/1900,2561,Head - Quality,60000155,SENIOR MANAGER - WIN
1/1/1900,2562,Head - Production,60000155,SENIOR MANAGER - WIN
1/1/1900,2563,Senior Manager,60000155,SENIOR MANAGER - WIN
1/1/1900,2564,Senior Manager - Process & Proposal,60000155,SENIOR MANAGER - WIN
1/1/1900,2565,Senior Manager - Finance,60000155,SENIOR MANAGER - WIN
1/1/1900,2566,Head - O&M,60000155,SENIOR MANAGER - WIN
1/1/1900,2567,Regional Incharge (North & Eat) - MLP business,60000155,SENIOR MANAGER - WIN
1/1/1900,2568,Export Sales In-charge,60000155,SENIOR MANAGER - WIN
1/1/1900,2569,Head - Purchase,60000155,SENIOR MANAGER - WIN
1/1/1900,2570,Head - E&I,60000155,SENIOR MANAGER - WIN
1/1/1900,2571,Head - Proposal (WTP),60000155,SENIOR MANAGER - WIN
1/1/1900,2572,Head - Installation & Commissioning,60000155,SENIOR MANAGER - WIN
1/1/1900,2573,Head - Projects,60000155,SENIOR MANAGER - WIN
1/1/1900,2574,Head - QA & Vendor Development,60000155,SENIOR MANAGER - WIN
1/1/1900,2575,Manager - Production Engineering,60000156,MANAGER - WIN
1/1/1900,2576,Manager - PDM,60000156,MANAGER - WIN
1/1/1900,2577,Manager - Finance,60000156,MANAGER - WIN
1/1/1900,2578,Manager - Production (MH & LCP),60000156,MANAGER - WIN
1/1/1900,2579,Manager - Production,60000156,MANAGER - WIN
1/1/1900,2580,Project Leader - R&D,60000156,MANAGER - WIN
1/1/1900,2581,Manager - QC,60000156,MANAGER - WIN
1/1/1900,2582,Senior Project Leader - R&D,60000156,MANAGER - WIN
1/1/1900,2583,Manager - PMD,60000156,MANAGER - WIN
1/1/1900,2584,Manager - CEO's Office,60000156,MANAGER - WIN
1/1/1900,2585,Manager - Services,60000156,MANAGER - WIN
1/1/1900,2586,Manager- Production,60000156,MANAGER - WIN
1/1/1900,2587,Manager - SS&SCM,60000156,MANAGER - WIN
1/1/1900,2588,Manager - Sales,60000156,MANAGER - WIN
1/1/1900,2589,Manager - Services & Industrial Sales,60000156,MANAGER - WIN
1/1/1900,2590,Manager Planning,60000156,MANAGER - WIN
1/1/1900,2591,Manager - Production,60000156,MANAGER - WIN
1/1/1900,2592,Manager - Manufacturing,60000156,MANAGER - WIN
1/1/1900,2593,Manager - Planning,60000156,MANAGER - WIN
1/1/1900,2594,Manager - Logistics,60000156,MANAGER - WIN
1/1/1900,2595,Manager - Key Accounts,60000156,MANAGER - WIN
1/1/1900,2596,Manager - Global Initiatives,60000156,MANAGER - WIN
1/1/1900,2597,Manager - GPO,60000156,MANAGER - WIN
1/1/1900,2598,Manager - Plant Engineering,60000156,MANAGER - WIN
1/1/1900,2599,Manager - Manufacturing Engineering,60000156,MANAGER - WIN
1/1/1900,2600,Manager - Production (MH),60000156,MANAGER - WIN
1/1/1900,2601,Manager - AfterMarket Sales,60000156,MANAGER - WIN
1/1/1900,2602,Manager - Supplier Quality,60000156,MANAGER - WIN
1/1/1900,2603,Manager - Supplier Quality Assurance,60000156,MANAGER - WIN
1/1/1900,2604,Manager - SQA,60000156,MANAGER - WIN
1/1/1900,2605,Manager -SCM,60000156,MANAGER - WIN
1/1/1900,2606,Manager- PE,60000156,MANAGER - WIN
1/1/1900,2607,Manager - Utility,60000156,MANAGER - WIN
1/1/1900,2608,Business Finance Manager- India Hydraulics,60000156,MANAGER - WIN
1/1/1900,2609,Manager - Product Support,60000156,MANAGER - WIN
1/1/1900,2610,Manager - Sales & Services,60000156,MANAGER - WIN
1/1/1900,2611,Manager - Additive Manufacturing,60000156,MANAGER - WIN
1/1/1900,2612,Manager - PE,60000156,MANAGER - WIN
1/1/1900,2613,Manager - Welding,60000156,MANAGER - WIN
1/1/1900,2614,Manager - Sourcing,60000156,MANAGER - WIN
1/1/1900,2615,"Manager - Business Development, Wipro 3D",60000156,MANAGER - WIN
1/1/1900,2616,Manager - NPI,60000156,MANAGER - WIN
1/1/1900,2617,Manager-Sourcing & Supply Chain Management,60000156,MANAGER - WIN
1/1/1900,2618,Manager - Materials,60000156,MANAGER - WIN
1/1/1900,2619,Lead Finance - Hindupur Plants,60000156,MANAGER - WIN
1/1/1900,2620,Senior Project Leader,60000156,MANAGER - WIN
1/1/1900,2621,Manager - IDH,60000156,MANAGER - WIN
1/1/1900,2622,Manager - Plant HR,60000156,MANAGER - WIN
1/1/1900,2623,Manager - Sourcing and SCM,60000156,MANAGER - WIN
1/1/1900,2624,Manager - Human Resources,60000156,MANAGER - WIN
1/1/1900,2625,Manager - Polymer & Maintenance,60000156,MANAGER - WIN
1/1/1900,2626,Manager- Assembly Line,60000156,MANAGER - WIN
1/1/1900,2627,Manager-Sourcing,60000156,MANAGER - WIN
1/1/1900,2628,Manager - PED,60000156,MANAGER - WIN
1/1/1900,2629,Manager - Design,60000156,MANAGER - WIN
1/1/1900,2630,Manager - Quality,60000156,MANAGER - WIN
1/1/1900,2631,Manager,60000156,MANAGER - WIN
1/1/1900,2632,Head Production,60000156,MANAGER - WIN
1/1/1900,2633,Finance Manager - Romania,60000156,MANAGER - WIN
1/1/1900,2634,Project Manager,60000156,MANAGER - WIN
1/1/1900,2635,Manager - QA,60000156,MANAGER - WIN
1/1/1900,2636,Finance Head - WIN Brazil,60000156,MANAGER - WIN
1/1/1900,2637,Head - Manufacturing Engineering,60000156,MANAGER - WIN
1/1/1900,2638,Manager - Special Process,60000156,MANAGER - WIN
1/1/1900,2639,Manager - Stores,60000156,MANAGER - WIN
1/1/1900,2640,Manager - Programme Management,60000156,MANAGER - WIN
1/1/1900,2641,Lead Finance - Chennai Plant,60000156,MANAGER - WIN
1/1/1900,2642,Head - Manufacturing,60000156,MANAGER - WIN
1/1/1900,2643,Manager - Business Development,60000156,MANAGER - WIN
1/1/1900,2644,Manager - Commercial,60000156,MANAGER - WIN
1/1/1900,2645,Manager - Commercial & Costing,60000156,MANAGER - WIN
1/1/1900,2646,Manager - HR,60000156,MANAGER - WIN
1/1/1900,2647,Manager - O&M Services,60000156,MANAGER - WIN
1/1/1900,2648,Manager - Procurement,60000156,MANAGER - WIN
1/1/1900,2649,Manager - Projects,60000156,MANAGER - WIN
1/1/1900,2650,Manager - Projects (Dealer business),60000156,MANAGER - WIN
1/1/1900,2651,Manager - Sales (Hyderabad),60000156,MANAGER - WIN
1/1/1900,2652,Manager - Technical Services,60000156,MANAGER - WIN
1/1/1900,2653,Manager - Purchase,60000156,MANAGER - WIN
1/1/1900,2654,Manager - Risk Management,60000156,MANAGER - WIN
1/1/1900,2655,Proposal Incharge - WWTP,60000156,MANAGER - WIN
1/1/1900,2656,Sales Manager - Exports,60000156,MANAGER - WIN
1/1/1900,2657,Sourcing Manager,60000156,MANAGER - WIN
1/1/1900,2658,West Regional Incharge - Large & Medium business,60000156,MANAGER - WIN
1/1/1900,2659,Assistant Manager - Production,60000157,ASSISTANT MANAGER - WIN
1/1/1900,2660,Zonal Service Manager - South,60000157,ASSISTANT MANAGER - WIN
1/1/1900,2661,Assistant Manager - Sales & Services,60000157,ASSISTANT MANAGER - WIN
1/1/1900,2662,Assistant Manager - Accounts,60000157,ASSISTANT MANAGER - WIN
1/1/1900,2663,Assistant Manager - SAP,60000157,ASSISTANT MANAGER - WIN
1/1/1900,2664,Assistant Manager - Services,60000157,ASSISTANT MANAGER - WIN
1/1/1900,2665,Assistant Manager - Production Engineering,60000157,ASSISTANT MANAGER - WIN
1/1/1900,2666,Project Leader - R&D,60000157,ASSISTANT MANAGER - WIN
1/1/1900,2667,Assistant Manager - Production,60000157,ASSISTANT MANAGER - WIN
1/1/1900,2668,Assistant Manager - Manufacturing,60000157,ASSISTANT MANAGER - WIN
1/1/1900,2669,Assistant Manager - M Q,60000157,ASSISTANT MANAGER - WIN
1/1/1900,2670,Assistant Manager - Quality,60000157,ASSISTANT MANAGER - WIN
1/1/1900,2671,Assistant Manager - Process Planning,60000157,ASSISTANT MANAGER - WIN
1/1/1900,2672,Assistant Manager - Sourcing,60000157,ASSISTANT MANAGER - WIN
1/1/1900,2673,Assistant Manager - Quality (Inward Goods),60000157,ASSISTANT MANAGER - WIN
1/1/1900,2674,Assistant Manager - Logistics,60000157,ASSISTANT MANAGER - WIN
1/1/1900,2675,Assistant Manager - Quality (CMM),60000157,ASSISTANT MANAGER - WIN
1/1/1900,2676,Assistant Manager - Human Resources,60000157,ASSISTANT MANAGER - WIN
1/1/1900,2677,Zonal Sales Manager - East,60000157,ASSISTANT MANAGER - WIN
1/1/1900,2678,Assistant Manager,60000157,ASSISTANT MANAGER - WIN
1/1/1900,2679,Project Leader,60000157,ASSISTANT MANAGER - WIN
1/1/1900,2680,Assistant Manager - Materials,60000157,ASSISTANT MANAGER - WIN
1/1/1900,2681,Assistant Manager - PMD,60000157,ASSISTANT MANAGER - WIN
1/1/1900,2682,Assistant Manager - Manufacturing,60000157,ASSISTANT MANAGER - WIN
1/1/1900,2683,Operations Manager,60000157,ASSISTANT MANAGER - WIN
1/1/1900,2684,Assistant Manager - Quality,60000157,ASSISTANT MANAGER - WIN
1/1/1900,2685,Finance Lead - WIN US,60000157,ASSISTANT MANAGER - WIN
1/1/1900,2686,Assistant Manager - Central Planning,60000157,ASSISTANT MANAGER - WIN
1/1/1900,2687,Assistant Manager - SQA,60000157,ASSISTANT MANAGER - WIN
1/1/1900,2688,Assistant Manager - Operations,60000157,ASSISTANT MANAGER - WIN
1/1/1900,2689,Assistant Manager - Metallurgy,60000157,ASSISTANT MANAGER - WIN
1/1/1900,2690,Assistant Manager - Stores,60000157,ASSISTANT MANAGER - WIN
1/1/1900,2691,Assistant Manager - Security & Admin,60000157,ASSISTANT MANAGER - WIN
1/1/1900,2692,Assistant Manager - Maintenance,60000157,ASSISTANT MANAGER - WIN
1/1/1900,2693,Assistant Manager - Sourcing,60000157,ASSISTANT MANAGER - WIN
1/1/1900,2694,Assistant Manager - CPE,60000157,ASSISTANT MANAGER - WIN
1/1/1900,2695,Assistant Manager - Plant Engineering,60000157,ASSISTANT MANAGER - WIN
1/1/1900,2696,Assistant Manager - Human Resources,60000157,ASSISTANT MANAGER - WIN
1/1/1900,2697,Assistant Manager - MED,60000157,ASSISTANT MANAGER - WIN
1/1/1900,2698,Assistant Manager-Sourcing,60000157,ASSISTANT MANAGER - WIN
1/1/1900,2699,Factory Visualization Specialist,60000157,ASSISTANT MANAGER - WIN
1/1/1900,2700,Assistant Manager - Material Handling,60000157,ASSISTANT MANAGER - WIN
1/1/1900,2701,Assistant Manager HR,60000157,ASSISTANT MANAGER - WIN
1/1/1900,2702,Assistant Manaherc - Quality,60000157,ASSISTANT MANAGER - WIN
1/1/1900,2703,Assistant Manager - Estimation,60000157,ASSISTANT MANAGER - WIN
1/1/1900,2704,HR Business Partner - New Businesses,60000157,ASSISTANT MANAGER - WIN
1/1/1900,2705,Assistant Manager- Engineering,60000157,ASSISTANT MANAGER - WIN
1/1/1900,2706,Assistant Manager - WIN Group,60000157,ASSISTANT MANAGER - WIN
1/1/1900,2707,Assistant Manager-Materials,60000157,ASSISTANT MANAGER - WIN
1/1/1900,2708,Assistant Manager -PE,60000157,ASSISTANT MANAGER - WIN
1/1/1900,2709,Assistant Manager - IS,60000157,ASSISTANT MANAGER - WIN
1/1/1900,2710,Assistant Manager - Operations,60000157,ASSISTANT MANAGER - WIN
1/1/1900,2711,Assistant Manager - Marketing,60000157,ASSISTANT MANAGER - WIN
1/1/1900,2712,Assistant Manager - EHS,60000157,ASSISTANT MANAGER - WIN
1/1/1900,2713,Assistant Manager - PE,60000157,ASSISTANT MANAGER - WIN
1/1/1900,2714,Assistant Manager - Projects,60000157,ASSISTANT MANAGER - WIN
1/1/1900,2715,Lead - Plant Finance,60000157,ASSISTANT MANAGER - WIN
1/1/1900,2716,Assistant Manager - Plating,60000157,ASSISTANT MANAGER - WIN
1/1/1900,2717,Assistant Manager - Engineering,60000157,ASSISTANT MANAGER - WIN
1/1/1900,2718,Assistant Manger,60000157,ASSISTANT MANAGER - WIN
1/1/1900,2719,Head - Global Initiatives - Chennai Plant,60000157,ASSISTANT MANAGER - WIN
1/1/1900,2720,Assistant Manager - Sales,60000157,ASSISTANT MANAGER - WIN
1/1/1900,2721,Assistant Manager - Planning,60000157,ASSISTANT MANAGER - WIN
1/1/1900,2722,Senior Engineer - Quality,60000158,SENIOR ENGINEER - WIN
1/1/1900,2723,Senior Engineer Services,60000158,SENIOR ENGINEER - WIN
1/1/1900,2724,Senior Engineer - SCM,60000158,SENIOR ENGINEER - WIN
1/1/1900,2725,Senior Engineer - Quality,60000158,SENIOR ENGINEER - WIN
1/1/1900,2726,Senior Engineer - Sales Estimation,60000158,SENIOR ENGINEER - WIN
1/1/1900,2727,Senior Engineer - WIPRO3D,60000158,SENIOR ENGINEER - WIN
1/1/1900,2728,Senior Engineer,60000158,SENIOR ENGINEER - WIN
1/1/1900,2729,Senior Engineer - Machine shop operations,60000158,SENIOR ENGINEER - WIN
1/1/1900,2730,Senior Engineer - Operations,60000158,SENIOR ENGINEER - WIN
1/1/1900,2731,Senior Engineer - Project,60000158,SENIOR ENGINEER - WIN
1/1/1900,2732,Senior Engineer - Assembly,60000158,SENIOR ENGINEER - WIN
1/1/1900,2733,Senior Engineer - Design,60000158,SENIOR ENGINEER - WIN
1/1/1900,2734,Senior Engineer - Engineering,60000158,SENIOR ENGINEER - WIN
1/1/1900,2735,Senior Engineer - Manufacturing,60000158,SENIOR ENGINEER - WIN
1/1/1900,2736,Senior Engineer - Materials,60000158,SENIOR ENGINEER - WIN
1/1/1900,2737,Senior Engineer - Operations,60000158,SENIOR ENGINEER - WIN
1/1/1900,2738,Senior Engineer - Paintshop,60000158,SENIOR ENGINEER - WIN
1/1/1900,2739,Senior Engineer - PED,60000158,SENIOR ENGINEER - WIN
1/1/1900,2740,Senior Engineer - Planning,60000158,SENIOR ENGINEER - WIN
1/1/1900,2741,Senior Engineer - Plant Engineering,60000158,SENIOR ENGINEER - WIN
1/1/1900,2742,Senior Engineer - Plant Maintenance,60000158,SENIOR ENGINEER - WIN
1/1/1900,2743,Senior Engineer - PMD,60000158,SENIOR ENGINEER - WIN
1/1/1900,2744,Senior Engineer - Pre Sales,60000158,SENIOR ENGINEER - WIN
1/1/1900,2745,Senior Engineer - Production,60000158,SENIOR ENGINEER - WIN
1/1/1900,2746,"Senior Engineer - Production, PRP",60000158,SENIOR ENGINEER - WIN
1/1/1900,2747,Senior Engineer - QA,60000158,SENIOR ENGINEER - WIN
1/1/1900,2748,Senior Engineer - R&D,60000158,SENIOR ENGINEER - WIN
1/1/1900,2749,Senior Engineer - Services,60000158,SENIOR ENGINEER - WIN
1/1/1900,2750,Senior Engineer - Smart Factory,60000158,SENIOR ENGINEER - WIN
1/1/1900,2751,Senior Engineer - Sourcing,60000158,SENIOR ENGINEER - WIN
1/1/1900,2752,Senior Engineer - Special Process,60000158,SENIOR ENGINEER - WIN
1/1/1900,2753,Senior Engineer - Stores,60000158,SENIOR ENGINEER - WIN
1/1/1900,2754,Senior Engineer Information Systems,60000158,SENIOR ENGINEER - WIN
1/1/1900,2755,Senior Engineer Plant Engineering,60000158,SENIOR ENGINEER - WIN
1/1/1900,2756,Senior engineer Production,60000158,SENIOR ENGINEER - WIN
1/1/1900,2757,Senior Engineer-Materials,60000158,SENIOR ENGINEER - WIN
1/1/1900,2758,Senior Engineer-Quality,60000158,SENIOR ENGINEER - WIN
1/1/1900,2759,Senior Engineer-Sourcing,60000158,SENIOR ENGINEER - WIN
1/1/1900,2760,Sr. Engineer - R&D,60000158,SENIOR ENGINEER - WIN
1/1/1900,2761,Senior Engineer - Engineering,60000158,SENIOR ENGINEER - WIN
1/1/1900,2762,Senior Engineer - Services,60000158,SENIOR ENGINEER - WIN
1/1/1900,2763,Project Leader - R&D,60000158,SENIOR ENGINEER - WIN
1/1/1900,2764,Senior Engineer - Design,60000158,SENIOR ENGINEER - WIN
1/1/1900,2765,Project Incharge,60000158,SENIOR ENGINEER - WIN
1/1/1900,2766,Assistant Manager - Design,60000158,SENIOR ENGINEER - WIN
1/1/1900,2767,Deputy Manager - E&I,60000158,SENIOR ENGINEER - WIN
1/1/1900,2768,Assistant Manager - QC,60000158,SENIOR ENGINEER - WIN
1/1/1900,2769,Administration Officer,60000159,SENIOR EXECUTIVE /SENIOR OFFICER - WIN
1/1/1900,2770,Business Finance Lead,60000159,SENIOR EXECUTIVE /SENIOR OFFICER - WIN
1/1/1900,2771,Business Finance Partner,60000159,SENIOR EXECUTIVE /SENIOR OFFICER - WIN
1/1/1900,2772,Cell Lead - A&D,60000159,SENIOR EXECUTIVE /SENIOR OFFICER - WIN
1/1/1900,2773,Operations - Executive,60000159,SENIOR EXECUTIVE /SENIOR OFFICER - WIN
1/1/1900,2774,Safety Officer,60000159,SENIOR EXECUTIVE /SENIOR OFFICER - WIN
1/1/1900,2775,Senior Executive - Sales,60000159,SENIOR EXECUTIVE /SENIOR OFFICER - WIN
1/1/1900,2776,Senior Executive - Finance,60000159,SENIOR EXECUTIVE /SENIOR OFFICER - WIN
1/1/1900,2777,Senior Executive - HR,60000159,SENIOR EXECUTIVE /SENIOR OFFICER - WIN
1/1/1900,2778,Senior Executive - Sourcing,60000159,SENIOR EXECUTIVE /SENIOR OFFICER - WIN
1/1/1900,2779,Senior Executive Finance,60000159,SENIOR EXECUTIVE /SENIOR OFFICER - WIN
1/1/1900,2780,Senior Executive Marketing,60000159,SENIOR EXECUTIVE /SENIOR OFFICER - WIN
1/1/1900,2781,Senior Officer - Safety,60000159,SENIOR EXECUTIVE /SENIOR OFFICER - WIN
1/1/1900,2782,Sr. Executive - Costing,60000159,SENIOR EXECUTIVE /SENIOR OFFICER - WIN
1/1/1900,2783,Assistant Manager,60000159,SENIOR EXECUTIVE /SENIOR OFFICER - WIN
1/1/1900,2784,Product Manager,60000159,SENIOR EXECUTIVE /SENIOR OFFICER - WIN
1/1/1900,2785,Project Incharge,60000159,SENIOR EXECUTIVE /SENIOR OFFICER - WIN
1/1/1900,2786,Lead - Sales (SSP),60000159,SENIOR EXECUTIVE /SENIOR OFFICER - WIN
1/1/1900,2787,Deputy Resident Construction Manager,60000159,SENIOR EXECUTIVE /SENIOR OFFICER - WIN
1/1/1900,2788,Assistant Manager - Purchase,60000159,SENIOR EXECUTIVE /SENIOR OFFICER - WIN
1/1/1900,2789,Territory Sales Incharge - Delhi,60000159,SENIOR EXECUTIVE /SENIOR OFFICER - WIN
1/1/1900,2790,Sales Incharge - O&M (South),60000159,SENIOR EXECUTIVE /SENIOR OFFICER - WIN
1/1/1900,2791,Assistant Manager - Legal,60000159,SENIOR EXECUTIVE /SENIOR OFFICER - WIN
1/1/1900,2792,Assistant Manager - Sales,60000159,SENIOR EXECUTIVE /SENIOR OFFICER - WIN
1/1/1900,2793,Sales In-charge - O&M (West & North),60000159,SENIOR EXECUTIVE /SENIOR OFFICER - WIN
1/1/1900,2794,Engineer - Plant Engineering,60000160,ENGINEER - WIN
1/1/1900,2795,Engineer - Production Engineering,60000160,ENGINEER - WIN
1/1/1900,2796,Assistant Engineer,60000160,ENGINEER - WIN
1/1/1900,2797,Assistant Engineer-Quality,60000160,ENGINEER - WIN
1/1/1900,2798,Assistant Engineer - Engineering,60000160,ENGINEER - WIN
1/1/1900,2799,Engineer,60000160,ENGINEER - WIN
1/1/1900,2800,Engineer - Engineering,60000160,ENGINEER - WIN
1/1/1900,2801,Engineer - Machine Shop,60000160,ENGINEER - WIN
1/1/1900,2802,Engineer - operations,60000160,ENGINEER - WIN
1/1/1900,2803,Engineer - Project,60000160,ENGINEER - WIN
1/1/1900,2804,Engineer - Assembly,60000160,ENGINEER - WIN
1/1/1900,2805,Engineer - Calibration,60000160,ENGINEER - WIN
1/1/1900,2806,Engineer - EHS,60000160,ENGINEER - WIN
1/1/1900,2807,Engineer - Logistics,60000160,ENGINEER - WIN
1/1/1900,2808,Engineer - Manufacturing,60000160,ENGINEER - WIN
1/1/1900,2809,Engineer - Materials,60000160,ENGINEER - WIN
1/1/1900,2810,Engineer - Plant Engineering,60000160,ENGINEER - WIN
1/1/1900,2811,Engineer - Production,60000160,ENGINEER - WIN
1/1/1900,2812,ENGINEER - QUALITY CONTROL,60000160,ENGINEER - WIN
1/1/1900,2813,Engineer - R&D,60000160,ENGINEER - WIN
1/1/1900,2814,Engineer - Sales,60000160,ENGINEER - WIN
1/1/1900,2815,Engineer - Sales Estimation,60000160,ENGINEER - WIN
1/1/1900,2816,Engineer - Services,60000160,ENGINEER - WIN
1/1/1900,2817,Engineer - Smart Factory,60000160,ENGINEER - WIN
1/1/1900,2818,Engineer - Sourcing,60000160,ENGINEER - WIN
1/1/1900,2819,Engineer - SQA,60000160,ENGINEER - WIN
1/1/1900,2820,Engineer NPI,60000160,ENGINEER - WIN
1/1/1900,2821,ENGINEER PED,60000160,ENGINEER - WIN
1/1/1900,2822,Engineer PLE,60000160,ENGINEER - WIN
1/1/1900,2823,Engineer-Calibration,60000160,ENGINEER - WIN
1/1/1900,2824,Engineer-Sales,60000160,ENGINEER - WIN
1/1/1900,2825,Engineer-Sourcing,60000160,ENGINEER - WIN
1/1/1900,2826,GET - NPD,60000160,ENGINEER - WIN
1/1/1900,2827,Graduate Engineer Trainee,60000160,ENGINEER - WIN
1/1/1900,2828,Sales Engineer,60000160,ENGINEER - WIN
1/1/1900,2829,Senior Engineer - Engineering,60000160,ENGINEER - WIN
1/1/1900,2830,Senior Engineer - Services,60000160,ENGINEER - WIN
1/1/1900,2831,Senior Executive - Finance,60000160,ENGINEER - WIN
1/1/1900,2832,Technical Sales - Engineer,60000160,ENGINEER - WIN
1/1/1900,2833,Senior Engineer - Planning,60000160,ENGINEER - WIN
1/1/1900,2834,Senior Engineer - Projects,60000160,ENGINEER - WIN
1/1/1900,2835,Senior Engineer - QC,60000160,ENGINEER - WIN
1/1/1900,2836,Senior Site Engineer - I&C,60000160,ENGINEER - WIN
1/1/1900,2837,Senior Automation Engineer,60000160,ENGINEER - WIN
1/1/1900,2838,Senior Engineer - Electrical,60000160,ENGINEER - WIN
1/1/1900,2839,Senior Engineer - Instrumentation,60000160,ENGINEER - WIN
1/1/1900,2840,Senior Engineer - Process & Proposal,60000160,ENGINEER - WIN
1/1/1900,2841,Senior Engineer - Projects,60000160,ENGINEER - WIN
1/1/1900,2842,Senior Engineer - Proposal,60000160,ENGINEER - WIN
1/1/1900,2843,Senior Engineer - Proposal,60000160,ENGINEER - WIN
1/1/1900,2844,Senior Engineer - Proposal (WWTP),60000160,ENGINEER - WIN
1/1/1900,2845,Senior Engineer - Purchase,60000160,ENGINEER - WIN
1/1/1900,2846,Senior Engineer - QC,60000160,ENGINEER - WIN
1/1/1900,2847,Senior Executive - Commercial,60000160,ENGINEER - WIN
1/1/1900,2848,Senior Executive - Logistics,60000160,ENGINEER - WIN
1/1/1900,2849,Senior Executive - O&M,60000160,ENGINEER - WIN
1/1/1900,2850,Senior Proposal Engineer - E&I,60000160,ENGINEER - WIN
1/1/1900,2851,Senior Sales Engineer - Mumbai,60000160,ENGINEER - WIN
1/1/1900,2852,Senior Site Engineer,60000160,ENGINEER - WIN
1/1/1900,2853,Senior Site Engineer - I&C,60000160,ENGINEER - WIN
1/1/1900,2854,Assistant Executive - BOT,60000161,EXECUTIVE & OFFICER - WIN
1/1/1900,2855,Executive - Finance,60000161,EXECUTIVE & OFFICER - WIN
1/1/1900,2856,Executive - IT,60000161,EXECUTIVE & OFFICER - WIN
1/1/1900,2857,Executive - Marketing,60000161,EXECUTIVE & OFFICER - WIN
1/1/1900,2858,Executive - Stores,60000161,EXECUTIVE & OFFICER - WIN
1/1/1900,2859,Executive Sales,60000161,EXECUTIVE & OFFICER - WIN
1/1/1900,2860,In-charge - Logistics,60000161,EXECUTIVE & OFFICER - WIN
1/1/1900,2861,SECURITY OFFICER,60000161,EXECUTIVE & OFFICER - WIN
1/1/1900,2862,Head - QA & Vendor Development,60000161,EXECUTIVE & OFFICER - WIN
1/1/1900,2863,O&M Area Incharge - South,60000161,EXECUTIVE & OFFICER - WIN
1/1/1900,2864,Senior Executive - Commercial,60000161,EXECUTIVE & OFFICER - WIN
1/1/1900,2865,Senior Executive - Logistics,60000161,EXECUTIVE & OFFICER - WIN
1/1/1900,2866,Senior Executive - O&M,60000161,EXECUTIVE & OFFICER - WIN
1/1/1900,2867,Assistant Engineer,60000162,ASSISTANT ENGINEER - WIN
1/1/1900,2868,Assistant Engineer - Assembly,60000162,ASSISTANT ENGINEER - WIN
1/1/1900,2869,Assistant Engineer - Manufacturing,60000162,ASSISTANT ENGINEER - WIN
1/1/1900,2870,Assistant Engineer - Material,60000162,ASSISTANT ENGINEER - WIN
1/1/1900,2871,Assistant Engineer - Plant Engineering,60000162,ASSISTANT ENGINEER - WIN
1/1/1900,2872,Assistant Engineer - PPC,60000162,ASSISTANT ENGINEER - WIN
1/1/1900,2873,Assistant Engineer - Production,60000162,ASSISTANT ENGINEER - WIN
1/1/1900,2874,Assistant Engineer - Production Engineering,60000162,ASSISTANT ENGINEER - WIN
1/1/1900,2875,Assistant Engineer - Quality,60000162,ASSISTANT ENGINEER - WIN
1/1/1900,2876,Assistant Engineer - Engineering,60000162,ASSISTANT ENGINEER - WIN
1/1/1900,2877,Assistant Engineer - Machine Shop,60000162,ASSISTANT ENGINEER - WIN
1/1/1900,2878,Assistant Engineer - Operations,60000162,ASSISTANT ENGINEER - WIN
1/1/1900,2879,Junior Engineer - Manufacturing,60000162,ASSISTANT ENGINEER - WIN
1/1/1900,2880,Junior Engineer - Materials,60000162,ASSISTANT ENGINEER - WIN
1/1/1900,2881,Junior Engineer - PMD,60000162,ASSISTANT ENGINEER - WIN
1/1/1900,2882,Design Engineer - E&I,60000162,ASSISTANT ENGINEER - WIN
1/1/1900,2883,Draughtsman,60000162,ASSISTANT ENGINEER - WIN
1/1/1900,2884,E&I Engineer - O&M,60000162,ASSISTANT ENGINEER - WIN
1/1/1900,2885,Engineer - Design,60000162,ASSISTANT ENGINEER - WIN
1/1/1900,2886,Engineer - Projects,60000162,ASSISTANT ENGINEER - WIN
1/1/1900,2887,Engineer - Projects (SSP),60000162,ASSISTANT ENGINEER - WIN
1/1/1900,2888,Engineer - Proposal,60000162,ASSISTANT ENGINEER - WIN
1/1/1900,2889,Engineer - Site,60000162,ASSISTANT ENGINEER - WIN
1/1/1900,2890,Engineer- Instrumentation,60000162,ASSISTANT ENGINEER - WIN
1/1/1900,2891,Project Engineer - Service,60000162,ASSISTANT ENGINEER - WIN
1/1/1900,2892,Proposal Engineer,60000162,ASSISTANT ENGINEER - WIN
1/1/1900,2893,Proposal Engineer (WWTP),60000162,ASSISTANT ENGINEER - WIN
1/1/1900,2894,Purchase Engineer,60000162,ASSISTANT ENGINEER - WIN
1/1/1900,2895,Sales Engineer - Delhi,60000162,ASSISTANT ENGINEER - WIN
1/1/1900,2896,Site Engineer,60000162,ASSISTANT ENGINEER - WIN
1/1/1900,2897,Site Engineer - I&C,60000162,ASSISTANT ENGINEER - WIN
1/1/1900,2898,Site Technician,60000162,ASSISTANT ENGINEER - WIN
1/1/1900,2899,Sr. Draughtsman,60000162,ASSISTANT ENGINEER - WIN
1/1/1900,2900,Territory Sales Engineer - Kolkata,60000162,ASSISTANT ENGINEER - WIN
1/1/1900,2901,Senior Associate - GRN,60000163,ASSISTANT EXECUTIVE - WIN
1/1/1900,2902,Assistant Executive,60000163,ASSISTANT EXECUTIVE - WIN
1/1/1900,2903,Assistant Executive - Logistics,60000163,ASSISTANT EXECUTIVE - WIN
1/1/1900,2904,Assistant Executive - Marketing,60000163,ASSISTANT EXECUTIVE - WIN
1/1/1900,2905,Assistant Executive - Planning,60000163,ASSISTANT EXECUTIVE - WIN
1/1/1900,2906,Assistant Executive - Sales,60000163,ASSISTANT EXECUTIVE - WIN
1/1/1900,2907,Assistant Executive - Sourcing,60000163,ASSISTANT EXECUTIVE - WIN
1/1/1900,2908,Associate - logistics,60000163,ASSISTANT EXECUTIVE - WIN
1/1/1900,2909,Associate - Materials,60000163,ASSISTANT EXECUTIVE - WIN
1/1/1900,2910,Assistant Executive - Quality,60000163,ASSISTANT EXECUTIVE - WIN
1/1/1900,2911,Assistant Executive - SCM,60000163,ASSISTANT EXECUTIVE - WIN
1/1/1900,2912,Senior Associate - Marketing,60000163,ASSISTANT EXECUTIVE - WIN
1/1/1900,2913,Senior Associate - Materials,60000163,ASSISTANT EXECUTIVE - WIN
1/1/1900,2914,Senior Executive - Sales,60000163,ASSISTANT EXECUTIVE - WIN
1/1/1900,2915,Accounts Executive,60000163,ASSISTANT EXECUTIVE - WIN
1/1/1900,2916,EHS Officer,60000163,ASSISTANT EXECUTIVE - WIN
1/1/1900,2917,Executive - Accounts,60000163,ASSISTANT EXECUTIVE - WIN
1/1/1900,2918,Executive - Accounts Payable,60000163,ASSISTANT EXECUTIVE - WIN
1/1/1900,2919,Executive - Commercial,60000163,ASSISTANT EXECUTIVE - WIN
1/1/1900,2920,Executive - E&I,60000163,ASSISTANT EXECUTIVE - WIN
1/1/1900,2921,Executive - HR,60000163,ASSISTANT EXECUTIVE - WIN
1/1/1900,2922,Executive - Marketing,60000163,ASSISTANT EXECUTIVE - WIN
1/1/1900,2923,Executive - Process & Proposal,60000163,ASSISTANT EXECUTIVE - WIN
1/1/1900,2924,Executive - Projects,60000163,ASSISTANT EXECUTIVE - WIN
1/1/1900,2925,Executive - Safety,60000163,ASSISTANT EXECUTIVE - WIN
1/1/1900,2926,Executive - Stores,60000163,ASSISTANT EXECUTIVE - WIN
1/1/1900,2927,O&M Incharge,60000163,ASSISTANT EXECUTIVE - WIN
1/1/1900,2928,Officer - Safety,60000163,ASSISTANT EXECUTIVE - WIN
1/1/1900,2929,Site Incharge,60000163,ASSISTANT EXECUTIVE - WIN
1/1/1900,2930,Site Incharge - O&M,60000163,ASSISTANT EXECUTIVE - WIN
1/1/1900,2931,Site Technician,60000163,ASSISTANT EXECUTIVE - WIN
1/1/1900,2932,Supervisor,60000163,ASSISTANT EXECUTIVE - WIN
1/1/1900,2933,Associate - HR,60000164,SENIOR ASSOCIATE & SENIOR CO-ORDINATOR - WIN
1/1/1900,2934,Associate - Logistics,60000164,SENIOR ASSOCIATE & SENIOR CO-ORDINATOR - WIN
1/1/1900,2935,Associate-Sales,60000164,SENIOR ASSOCIATE & SENIOR CO-ORDINATOR - WIN
1/1/1900,2936,Senior Associate - Materials,60000164,SENIOR ASSOCIATE & SENIOR CO-ORDINATOR - WIN
1/1/1900,2937,Senior Co-ordinator - IT,60000164,SENIOR ASSOCIATE & SENIOR CO-ORDINATOR - WIN
1/1/1900,2938,Senior Co-ordinator - Operations,60000164,SENIOR ASSOCIATE & SENIOR CO-ORDINATOR - WIN
1/1/1900,2939,Senior Associate - SCM,60000165,ASSOCIATE & CO-ORDINATOR - WIN
1/1/1900,2940,Associate - Sales,60000165,ASSOCIATE & CO-ORDINATOR - WIN
1/1/1900,2941,Associate Engineer Services,60000165,ASSOCIATE & CO-ORDINATOR - WIN
1/1/1900,2942,Senior Associate - Stores,60000165,ASSOCIATE & CO-ORDINATOR - WIN
1/1/1900,2943,Draughtsman,60000165,ASSOCIATE & CO-ORDINATOR - WIN
1/1/1900,2944,Draughtsman - Electrical,60000165,ASSOCIATE & CO-ORDINATOR - WIN
1/1/1900,2945,IT Assistant,60000165,ASSOCIATE & CO-ORDINATOR - WIN
1/1/1900,2946,Junior Design Engineer,60000165,ASSOCIATE & CO-ORDINATOR - WIN
1/1/1900,2947,Junior Engineer - Design,60000165,ASSOCIATE & CO-ORDINATOR - WIN
1/1/1900,2948,Junior Site Engineer - I&C,60000165,ASSOCIATE & CO-ORDINATOR - WIN
1/1/1900,2949,Junior Engineer - QC,60000165,ASSOCIATE & CO-ORDINATOR - WIN
1/1/1900,2950,Officer - Admin,60000165,ASSOCIATE & CO-ORDINATOR - WIN
1/1/1900,2951,Receptionist,60000165,ASSOCIATE & CO-ORDINATOR - WIN
1/1/1900,2952,Site Engineer - I&C,60000165,ASSOCIATE & CO-ORDINATOR - WIN
1/1/1900,2953,Site Incharge - Services,60000165,ASSOCIATE & CO-ORDINATOR - WIN
1/1/1900,2954,Store Incharge,60000165,ASSOCIATE & CO-ORDINATOR - WIN
1/1/1900,2955,Technician,60000165,ASSOCIATE & CO-ORDINATOR - WIN
1/1/1900,2956,Lab Technician- R&D,60000166,LAB TECHNICIAN - WIN
1/1/1900,2957,Graduate Engineer Trainee,60000167,GRADUATE ENGINEER TRAINEE - WIN
1/1/1900,2958,Graduate Engineer Trainee - Production plating,60000167,GRADUATE ENGINEER TRAINEE - WIN
1/1/1900,2959,Graduate Engineer Trainee - Engineering,60000167,GRADUATE ENGINEER TRAINEE - WIN
1/1/1900,2960,Graduate Engineer Trainee - Assembly,60000167,GRADUATE ENGINEER TRAINEE - WIN
1/1/1900,2961,GET - Painting Shop,60000167,GRADUATE ENGINEER TRAINEE - WIN
1/1/1900,2962,GET - Planning,60000167,GRADUATE ENGINEER TRAINEE - WIN
1/1/1900,2963,Retainer,60000168,FIXED TERM EMPLOYEES - WIN
1/1/1900,2964,Consultant,60000168,FIXED TERM EMPLOYEES - WIN
1/1/1900,2965,Business Advisor,60000168,FIXED TERM EMPLOYEES - WIN
1/1/1900,2966,3D Artist,60000168,FIXED TERM EMPLOYEES - WIN
1/1/1900,2967,Site Engineer - O&M,60000168,FIXED TERM EMPLOYEES - WIN
1/1/1900,2968,Consultant - Commercial,60000168,FIXED TERM EMPLOYEES - WIN
1/1/1900,2969,Trainee,60000168,FIXED TERM EMPLOYEES - WIN
1/1/1900,2970,Student Trainee,60000169,STUDENT TRAINEE - WIN
1/1/1900,2971,Fixed Term Employees,60000176,Audit Executive
1/1/1900,2972,RETAINER,60000177,Audit Executive
1/1/1900,2973,Executive - Accounts,60000000,Accounts Executive
1/1/1900,2974,Senior Executive - Accounts,60000000,Accounts Executive
1/1/1900,2975,Manager Accounts,60000001,Accounts Manager
1/1/1900,2976,Assistant Manager,60000002,Area Sales Manager
1/1/1900,2976,Assistant Manager,60000003,Area Sales Manager (B2B)
1/1/1900,2976,Assistant Manager,60000026,Controllership Manager
1/1/1900,2976,Assistant Manager,60000055,Internal Audit Manager
1/1/1900,2977,Area Sales Manager - AP & TS,60000002,Area Sales Manager
1/1/1900,2978,Senior Area Manager - DGSND,60000002,Area Sales Manager
1/1/1900,2979,Area Manager - Sales,60000003,Area Sales Manager (B2B)
1/1/1900,2980,Area Manager - Gujarat,60000003,Area Sales Manager (B2B)
1/1/1900,2982,Territory Manager-Sales,60000003,Area Sales Manager (B2B)
1/1/1900,2983,Chief Financial Officer-Wipro Enterprises Ltd,60000019,Chief Financial Officer
1/1/1900,2984,Senior Executive – Corporate Secretarial,60000178,Company Secretary Executive
1/1/1900,2986,Consultant,60000171,Communications Head
1/1/1900,2987,Assistant Manager - Utilities,60000037,Facilities Management
1/1/1900,2988,Plant Manager - Haridwar,60000038,Factory Head
1/1/1900,2989,Factory Manager - Baddi CC-2,60000038,Factory Head
1/1/1900,2990,Senior Executive - Finance,60000039,Finance Executive
1/1/1900,2991,Executive Finance,60000039,Finance Executive
1/1/1900,2991,Executive Finance,60000132,Shared Services Executive
1/1/1900,2992,Assistant Manager Finance,60000040,Finance Manager
1/1/1900,2993,Senior Executive  HR,60000052,HR Executive
1/1/1900,2994,Senior Executive - Human Resources,60000052,HR Executive
1/1/1900,2995,Senior Executive - HR / Systems,60000052,HR Executive
1/1/1900,2997,Assistant Manager - Internal Audit,60000055,Internal Audit Manager
1/1/1900,2998,General Counsel,60000172,Legal Head
1/1/1900,2999,Manager - Product Development,60000082,Marketing Manager
1/1/1900,3000,Product Manager,60000082,Marketing Manager
1/1/1900,3000,Product Manager,60000092,Product Manager
1/1/1900,3001,Logistics Executive,60000084,Materials Executive
1/1/1900,3002,Purchase Executive,60000084,Materials Executive
1/1/1900,3003,Regional Logstics Executive,60000084,Materials Executive
1/1/1900,3004,Materials Executive,60000084,Materials Executive
1/1/1900,3005,Manager-Logistics,60000085,Materials Manager
1/1/1900,3007,Manager - Production & Projects,60000095,Production Manager
1/1/1900,3008,Senior Manager Information Systems (PMO),60000099,Projects Manager
1/1/1900,3009,Engineer - QAE,60000102,Quality Executive
1/1/1900,3010,Senior Executive - Quality,60000102,Quality Executive
1/1/1900,3011,Senior Executive -  QA,60000102,Quality Executive
1/1/1900,3012,Senior  Executive - Quality Control,60000102,Quality Executive
1/1/1900,3013,Senior Executive-QC,60000102,Quality Executive
1/1/1900,3014,Assistant Manager - Quality,60000104,Quality Manager
1/1/1900,3015,Manager - Quality,60000104,Quality Manager
1/1/1900,3016,Manager - QA,60000104,Quality Manager
1/1/1900,3017,Manager QC,60000104,Quality Manager
1/1/1900,3018,Regional Manager - North,60000113,Regional Manager - Sales (B2B)
1/1/1900,3019,Zonal Manager - South,60000113,Regional Manager - Sales (B2B)
1/1/1900,3020,Zonal Manager Sales,60000113,Regional Manager - Sales (B2B)
1/1/1900,3021,"General Manager - Sales, East",60000114,Regional Manager Sales
1/1/1900,3022,General Manager - Sales AP & TS,60000114,Regional Manager Sales
1/1/1900,3023,Regional Manager - South 2,60000114,Regional Manager Sales
1/1/1900,3024,General Manager - Sales Maharashtra,60000114,Regional Manager Sales
1/1/1900,3025,General Manager - Sales Tamil Nadu,60000114,Regional Manager Sales
1/1/1900,3026,Regional Manager - North 1,60000114,Regional Manager Sales
1/1/1900,3027,Regional Manager - North II,60000114,Regional Manager Sales
1/1/1900,3028,Regional Manager - South 1,60000114,Regional Manager Sales
1/1/1900,3029,Regional Manager - West,60000114,Regional Manager Sales
1/1/1900,3030,Zonal Manager,60000114,Regional Manager Sales
1/1/1900,3031,Senior Area Sales Executive,60000127,Sales Officer (B2B)
1/1/1900,3032,Senior Sales Executive,60000127,Sales Officer (B2B)
1/1/1900,3033,Sales Executive,60000127,Sales Officer (B2B)
1/1/1900,3034,Service Executive,60000130,Service Executive
1/1/1900,3036,Associate,60000132,Shared Services Executive
1/1/1900,3037,Executive,60000132,Shared Services Executive
1/1/1900,3038,Manager - R2R,60000173,Shared Services Manager
1/1/1900,3039,Manager Ecommerce,60000174,Sales Manager Ecommerce
1/1/1900,3040,Manager - Planning,60000141,Supply Chain Manager
1/1/1900,3041,Assistant Manager- Taxation,60000143,Taxation Manager
1/1/1900,3042,Chief Investment Officer,60000175,Head Treasury
1/1/1900,3043,Company Secretary,60000180,Company Secretary Head
1/1/1900,3044,Senior Executive-Internal Audit,60000181,Internal Audit Executive
1/1/1900,3045,Intern,60000179,Intern
1/1/1900,9999,History Designation,HIST_JC,History Job Code
