Code (PA-PSA),Location Name,LocationRegion (External Code),LocationRegion (Picklist Label),externalCode
10323068,Maharashtra-Bandra,127,India,29802
10323067,Maharashtra-Bhiwandi,127,India,29801
10323066,Maharashtra-Pune,127,India,29800
10323065,Maharashtra-Airoli,127,India,29799
10313064,Madhya Pradesh-Indore,127,India,29798
10303063,Karnataka-EC4,127,India,29797
10303062,Karnataka-EC3,127,India,29796
10303061,Karnataka - Peenya Unit 2,127,India,29795
10303059,Karnataka - Peenya Unit 1,127,India,29794
10303058,Karnataka-Hubli,127,India,29793
10303055,Karnataka-M G Road,127,India,29792
10333069,Rajasthan-Jaipur,127,India,29803
10343071,Tamil Nadu-Chennai,127,India,29804
10353072,Telangana-Hyderabad,127,India,29805
10363073,Uttar Pradesh-Lucknow,127,India,29806
10373074,West Bengal-Kolkata,127,India,29807
10323083,Maharashtra-Katraj,127,India,29808
10323084,Maharashtra-Shirwal,127,India,29809
10303085,Karnataka-Bangalore RO,127,India,29810
10323086,Maharashtra-Nagpur ROM,127,India,29811
10473097,Odisha-Bhubaneshwar,127,India,29818
10483098,Assam-Guwahati,127,India,29819
10343070,Tamil Nadu-Irngtk Che,127,India,29740
10253046,Andhra Pradesh-Thumk. Cyl Pl,127,India,29742
10253048,Andhra Pradesh-Thumk.Cyl RodPl,127,India,29743
10303056,Karnataka-Peenya,127,India,29744
10303060,Karnataka-Koramangala 2,127,India,29745
10303057,Karnataka-Devanahall,127,India,29750
10383075,Maharashtra-Airoli,127,India,29753
10383076,Maharashtra-Pune,127,India,29754
10293054,Jharkhand-Jamshedpur,127,India,29791
10283053,Haryana-Haryana,127,India,29761
10283052,Haryana-Nlbtrd Frd,127,India,29760
10273051,Gujarat-Ahmedabad,127,India,29759
10273050,Gujarat-Baroda,127,India,29758
10263049,Delhi-Delhi,127,India,29757
10253047,Andhra Pradesh-Vijayawada,127,India,29756
10383077,Maharashtra-Bhiwandi,127,India,29755
10493099,Brazil-Piracicaba,128,Brazil,29746
10513101,Finland-Pernio,129,Finland,29747
10413087,Romania-Ramnicu Valcea,130,Romania,29812
10413088,Romania-Bucharest,130,Romania,29813
10423089,Sweden-Ostersund,131,Sweden,29814
10423090,Sweden-Skelleftea,131,Sweden,29815
10423091,Sweden-Bispgarden,131,Sweden,29816
10423092,Sweden-Ljungby,131,Sweden,29817
10433093,Hydraulics US-Pennsylvania,132,USA,29748
10453095,Givon US-Everett,132,USA,29751
10443094,Germany-Wurmlingen,133,Germany,29749
10463096,Givon Israel-Kiryat Bialik,134,Israel,29752
10013001,Andhra Pradesh-Vishakhapatnam,100,Andhra Pradesh,3724
10033005,Andhra Pradesh-Tirupati AO,101,AP & TS,3956
10523102,Telangana-Hyderabad,101,AP & TS,3960
10013001,Andhra Pradesh-Vishakhapatnam,101,AP & TS,3957
10033004,Andhra Pradesh-Vijayawada,101,AP & TS,3959
10033080,Andhra Pradesh-Tirupati Godown,101,AP & TS,3958
10173035,Rajasthan-Jaipur,102,Central,3979
10133031,Madhya Pradesh-Indore,102,Central,3978
10073011,Gujarat-Ahmedabad 2,102,Central,3977
10073010,Gujarat-Ahmedabad 1,102,Central,3976
10023002,Karnataka-Blr Wipro House,103,Corporate,3993
10023002,Karnataka-Blr Wipro House,103,Corporate,3987
10123030,Maharashtra-Mumbai Lotus,103,Corporate,4026
10023002,Karnataka-Blr Wipro House,103,Corporate,3955
10023002,Karnataka-Blr Wipro House,103,Corporate,3954
10023002,Karnataka-Blr Wipro House,103,Corporate,4093
10123022,Maharashtra-Pune BO,103,Corporate,4092
10023002,Karnataka-Blr Wipro House,103,Corporate,4060
10023002,Karnataka-Blr Wipro House,103,Corporate,3723
10053008,Chhattisgarh-Raipur,104,E,3953
10243045,West Bengal-Kolkata RO,104,E,3952
10243045,West Bengal-Kolkata RO,105,East,4024
10053008,Chhattisgarh-Raipur,105,East,4025
10053008,Chhattisgarh-Raipur,105,East,3986
10243045,West Bengal-Kolkata RO,105,East,4106
10243045,West Bengal-Kolkata RO,105,East,3985
10243045,West Bengal-Kolkata RO,105,East,4056
10243045,West Bengal-Kolkata RO,105,East,4091
10243045,West Bengal-Kolkata RO,105,East,4059
10053008,Chhattisgarh-Raipur,105,East,4057
10053008,Chhattisgarh-Raipur,105,East,4090
10223043,Uttarakhand-Haridwar,106,Factory,3994
10083012,Himachal Pradesh-Baddi,107,Himachal Pradesh,3988
10163034,Philippines-Manila,108,International,4061
10503100,Sri Lanka-Sri Lanka,108,International,4062
10143032,Malaysia-Kualalumpur,108,International,4071
10233044,Vietnam-HCM,108,International,4070
10543104,Hong Kong-Hong Kong,108,International,4069
10183036,Singapore-Singapore,108,International,4068
10043007,Bangladesh-Dhaka,108,International,4063
10403079,Nepal-Kathmandu,108,International,4064
10203040,United Kingdom-London,108,International,4065
10533103,UAE-Dubai,108,International,4066
10193037,Thailand-Bangkok,108,International,4067
10103082,Karnataka-Tumkur Plant,109,Karnataka,3991
10113018,Kerala-Cochin,110,KL,3964
10103016,Karnataka-Bangalore BG,111,KTK,3961
10103015,Karnataka-Tumkur,111,KTK,3962
10103017,Karnataka-Hubli,111,KTK,3963
10123021,Maharashtra-Waluj,112,Maharashtra,3992
10123020,Maharashtra-Amalner 2,112,Maharashtra,3722
10123024,Maharashtra-Aurangabad 1,113,MH,3968
10123023,Maharashtra-Pune RO,113,MH,3975
10123022,Maharashtra-Pune BO,113,MH,3974
10123028,Maharashtra-Pune,113,MH,3973
10123027,Maharashtra-Nagpur 1,113,MH,3972
10123030,Maharashtra-Mumbai Lotus,113,MH,3971
10123029,Maharashtra-Bhiwandi Depot,113,MH,3970
10123025,Maharashtra-Bhiwandi 1,113,MH,3969
10073010,Gujarat-Ahmedabad 1,114,N1,3922
10073011,Gujarat-Ahmedabad 2,114,N1,3923
10133031,Madhya Pradesh-Indore,114,N1,3924
10173035,Rajasthan-Jaipur,114,N1,3925
10063009,Delhi-Delhi,114,N1,3926
10213042,Uttar Pradesh-Lucknow,115,N2,3927
10213041,Uttar Pradesh-Ghaziabad,115,N2,3928
10093013,Haryana-Faridabad,115,N2,3929
10153033,Punjab-Zirakpur,115,N2,3930
10173035,Rajasthan-Jaipur,116,North,4006
10093013,Haryana-Faridabad,116,North,4007
10213041,Uttar Pradesh-Ghaziabad,116,North,4008
10213042,Uttar Pradesh-Lucknow,116,North,4009
10063009,Delhi-Delhi,116,North,4010
10153033,Punjab-Zirakpur,116,North,4011
10213042,Uttar Pradesh-Lucknow,116,North,4078
10133031,Madhya Pradesh-Indore,116,North,4079
10173035,Rajasthan-Jaipur,116,North,4080
10173035,Rajasthan-Jaipur,116,North,4038
10063009,Delhi-Delhi,116,North,4039
10063009,Delhi-Delhi,116,North,4081
10153033,Punjab-Zirakpur,116,North,4082
10063009,Delhi-Delhi,116,North,4100
10213041,Uttar Pradesh-Ghaziabad,116,North,4043
10093013,Haryana-Faridabad,116,North,4040
10153033,Punjab-Zirakpur,116,North,4041
10213042,Uttar Pradesh-Lucknow,116,North,4042
10153033,Punjab-Zirakpur,116,North,4101
10153033,Punjab-Zirakpur,116,North,3984
10093013,Haryana-Faridabad,116,North,3983
10213041,Uttar Pradesh-Ghaziabad,116,North,3982
10213042,Uttar Pradesh-Lucknow,116,North,3981
10063009,Delhi-Delhi,116,North,3980
10133031,Madhya Pradesh-Indore,116,North,4005
10393081,Tamil Nadu-Kancheepuram,117,S1,3935
10393039,Tamil Nadu-Coimbatore,117,S1,3936
10113018,Kerala-Cochin,117,S1,3937
10103016,Karnataka-Bangalore BG,117,S1,3934
10103015,Karnataka-Tumkur,117,S1,3933
10103017,Karnataka-Hubli,117,S1,3932
10023002,Karnataka-Blr Wipro House,117,S1,3931
10013001,Andhra Pradesh-Vishakhapatnam,118,S2,3938
10033004,Andhra Pradesh-Vijayawada,118,S2,3939
10033080,Andhra Pradesh-Tirupati Godown,118,S2,3940
10033005,Andhra Pradesh-Tirupati AO,118,S2,3941
10393038,Tamil Nadu-Chennai,118,S2,3942
10523102,Telangana-Hyderabad,118,S2,3943
10393038,Tamil Nadu-Chennai,119,South,4022
10393081,Tamil Nadu-Kancheepuram,119,South,4021
10013001,Andhra Pradesh-Vishakhapatnam,119,South,4013
10103017,Karnataka-Hubli,119,South,4020
10393039,Tamil Nadu-Coimbatore,119,South,4023
10033005,Andhra Pradesh-Tirupati AO,119,South,4012
10103015,Karnataka-Tumkur,119,South,4019
10103015,Karnataka-Tumkur,119,South,4089
10103016,Karnataka-Bangalore BG,119,South,4088
10393038,Tamil Nadu-Chennai,119,South,4087
10523102,Telangana-Hyderabad,119,South,4086
10393039,Tamil Nadu-Coimbatore,119,South,4083
10113018,Kerala-Cochin,119,South,4105
10393038,Tamil Nadu-Chennai,119,South,4104
10023002,Karnataka-Blr Wipro House,119,South,4103
10523102,Telangana-Hyderabad,119,South,4102
10033004,Andhra Pradesh-Vijayawada,119,South,4014
10033080,Andhra Pradesh-Tirupati Godown,119,South,4015
10523102,Telangana-Hyderabad,119,South,4016
10113018,Kerala-Cochin,119,South,4017
10103016,Karnataka-Bangalore BG,119,South,4018
10013001,Andhra Pradesh-Vishakhapatnam,119,South,4084
10113018,Kerala-Cochin,119,South,4085
10033005,Andhra Pradesh-Tirupati AO,120,South 1,4044
10013001,Andhra Pradesh-Vishakhapatnam,120,South 1,4045
10033004,Andhra Pradesh-Vijayawada,120,South 1,4046
10033080,Andhra Pradesh-Tirupati Godown,120,South 1,4047
10523102,Telangana-Hyderabad,120,South 1,4048
10393081,Tamil Nadu-Kancheepuram,120,South 1,4049
10393038,Tamil Nadu-Chennai,120,South 1,4050
10393039,Tamil Nadu-Coimbatore,120,South 1,4051
10113018,Kerala-Cochin,121,South 2,4055
10103017,Karnataka-Hubli,121,South 2,4054
10103015,Karnataka-Tumkur,121,South 2,4053
10103016,Karnataka-Bangalore BG,121,South 2,4052
10523078,Telangana-Hyderabad Plant,122,Telangana,3990
10393081,Tamil Nadu-Kancheepuram,123,TN,3967
10393038,Tamil Nadu-Chennai,123,TN,3966
10393039,Tamil Nadu-Coimbatore,123,TN,3965
10223043,Uttarakhand-Haridwar,124,Uttrakhand,3989
10123024,Maharashtra-Aurangabad 1,125,W,3944
10123025,Maharashtra-Bhiwandi 1,125,W,3945
10123029,Maharashtra-Bhiwandi Depot,125,W,3946
10123030,Maharashtra-Mumbai Lotus,125,W,3947
10123027,Maharashtra-Nagpur 1,125,W,3948
10123028,Maharashtra-Pune,125,W,3949
10123022,Maharashtra-Pune BO,125,W,3950
10123023,Maharashtra-Pune RO,125,W,3951
10123030,Maharashtra-Mumbai Lotus,126,West,4000
10123027,Maharashtra-Nagpur 1,126,West,4001
10073010,Gujarat-Ahmedabad 1,126,West,4094
10073011,Gujarat-Ahmedabad 2,126,West,4095
10123030,Maharashtra-Mumbai Lotus,126,West,4096
10123028,Maharashtra-Pune,126,West,4097
10123028,Maharashtra-Pune,126,West,4098
10123027,Maharashtra-Nagpur 1,126,West,4099
10123028,Maharashtra-Pune,126,West,4002
10123022,Maharashtra-Pune BO,126,West,4003
10123023,Maharashtra-Pune RO,126,West,4004
10123025,Maharashtra-Bhiwandi 1,126,West,3998
10123024,Maharashtra-Aurangabad 1,126,West,3997
10073010,Gujarat-Ahmedabad 1,126,West,4027
10073011,Gujarat-Ahmedabad 2,126,West,4028
10133031,Madhya Pradesh-Indore,126,West,4029
10123024,Maharashtra-Aurangabad 1,126,West,4030
10123025,Maharashtra-Bhiwandi 1,126,West,4031
10123029,Maharashtra-Bhiwandi Depot,126,West,4032
10123030,Maharashtra-Mumbai Lotus,126,West,4033
10123027,Maharashtra-Nagpur 1,126,West,4034
10123028,Maharashtra-Pune,126,West,4035
10123025,Maharashtra-Bhiwandi 1,126,West,4077
10123028,Maharashtra-Pune,126,West,4076
10123030,Maharashtra-Mumbai Lotus,126,West,4075
10123024,Maharashtra-Aurangabad 1,126,West,4074
10073011,Gujarat-Ahmedabad 2,126,West,4073
10073010,Gujarat-Ahmedabad 1,126,West,4072
10123021,Maharashtra-Waluj,126,West,4058
10123029,Maharashtra-Bhiwandi Depot,126,West,3999
10073010,Gujarat-Ahmedabad 1,126,West,3995
10073011,Gujarat-Ahmedabad 2,126,West,3996
10123023,Maharashtra-Pune RO,126,West,4037
10123022,Maharashtra-Pune BO,126,West,4036
